# Single Photon
mc15_13TeV.361039.Sherpa_CT10_SinglePhotonPt35_70_CVetoBVeto.merge.DAOD_SUSY1.e3587_s2608_s2183_r7725_r7676_p2666
mc15_13TeV.361040.Sherpa_CT10_SinglePhotonPt35_70_CFilterBVeto.merge.DAOD_SUSY1.e3587_s2608_s2183_r7725_r7676_p2666
mc15_13TeV.361041.Sherpa_CT10_SinglePhotonPt35_70_BFilter.merge.DAOD_SUSY1.e3587_s2608_s2183_r7725_r7676_p2666
mc15_13TeV.361042.Sherpa_CT10_SinglePhotonPt70_140_CVetoBVeto.merge.DAOD_SUSY1.e3587_s2608_s2183_r7725_r7676_p2666
mc15_13TeV.361043.Sherpa_CT10_SinglePhotonPt70_140_CFilterBVeto.merge.DAOD_SUSY1.e3587_s2608_s2183_r7725_r7676_p2666
mc15_13TeV.361044.Sherpa_CT10_SinglePhotonPt70_140_BFilter.merge.DAOD_SUSY1.e3587_s2608_s2183_r7725_r7676_p2666
mc15_13TeV.361045.Sherpa_CT10_SinglePhotonPt140_280_CVetoBVeto.merge.DAOD_SUSY1.e3587_s2608_s2183_r7725_r7676_p2666
mc15_13TeV.361046.Sherpa_CT10_SinglePhotonPt140_280_CFilterBVeto.merge.DAOD_SUSY1.e3587_s2608_s2183_r7725_r7676_p2666
mc15_13TeV.361047.Sherpa_CT10_SinglePhotonPt140_280_BFilter.merge.DAOD_SUSY1.e3587_s2608_s2183_r7725_r7676_p2666
mc15_13TeV.361048.Sherpa_CT10_SinglePhotonPt280_500_CVetoBVeto.merge.DAOD_SUSY1.e3587_s2608_s2183_r7725_r7676_p2666
mc15_13TeV.361049.Sherpa_CT10_SinglePhotonPt280_500_CFilterBVeto.merge.DAOD_SUSY1.e3587_s2608_s2183_r7725_r7676_p2666
mc15_13TeV.361050.Sherpa_CT10_SinglePhotonPt280_500_BFilter.merge.DAOD_SUSY1.e3587_s2608_s2183_r7725_r7676_p2666
mc15_13TeV.361051.Sherpa_CT10_SinglePhotonPt500_1000_CVetoBVeto.merge.DAOD_SUSY1.e3587_s2608_s2183_r7725_r7676_p2666
mc15_13TeV.361052.Sherpa_CT10_SinglePhotonPt500_1000_CFilterBVeto.merge.DAOD_SUSY1.e3587_s2608_s2183_r7725_r7676_p2666
mc15_13TeV.361053.Sherpa_CT10_SinglePhotonPt500_1000_BFilter.merge.DAOD_SUSY1.e3587_s2608_s2183_r7725_r7676_p2666
mc15_13TeV.361054.Sherpa_CT10_SinglePhotonPt1000_2000_CVetoBVeto.merge.DAOD_SUSY1.e3587_s2608_s2183_r7725_r7676_p2666
mc15_13TeV.361055.Sherpa_CT10_SinglePhotonPt1000_2000_CFilterBVeto.merge.DAOD_SUSY1.e3587_s2608_s2183_r7725_r7676_p2666
mc15_13TeV.361056.Sherpa_CT10_SinglePhotonPt1000_2000_BFilter.merge.DAOD_SUSY1.e3587_s2608_s2183_r7725_r7676_p2666
mc15_13TeV.361057.Sherpa_CT10_SinglePhotonPt2000_4000_CVetoBVeto.merge.DAOD_SUSY1.e3587_s2608_s2183_r7725_r7676_p2666
mc15_13TeV.361058.Sherpa_CT10_SinglePhotonPt2000_4000_CFilterBVeto.merge.DAOD_SUSY1.e3587_s2608_s2183_r7725_r7676_p2666
mc15_13TeV.361059.Sherpa_CT10_SinglePhotonPt2000_4000_BFilter.merge.DAOD_SUSY1.e3587_s2608_s2183_r7725_r7676_p2666
mc15_13TeV.361060.Sherpa_CT10_SinglePhotonPt4000_CVetoBVeto.merge.DAOD_SUSY1.e3587_s2608_s2183_r7725_r7676_p2666
mc15_13TeV.361061.Sherpa_CT10_SinglePhotonPt4000_CFilterBVeto.merge.DAOD_SUSY1.e3587_s2608_s2183_r7725_r7676_p2666
mc15_13TeV.361062.Sherpa_CT10_SinglePhotonPt4000_BFilter.merge.DAOD_SUSY1.e3587_s2608_s2183_r7725_r7676_p2666

#Vgamma 
#missing 304776 (Sherpa_CT10_tautaugammaPt10_35) 
mc15_13TeV.301535.Sherpa_CT10_eegammaPt10_35.merge.DAOD_SUSY1.e3952_s2608_s2183_r7725_r7676_p2666
mc15_13TeV.301536.Sherpa_CT10_mumugammaPt10_35.merge.DAOD_SUSY1.e3952_s2608_s2183_r7725_r7676_p2666
mc15_13TeV.301890.Sherpa_CT10_enugammaPt35_70.merge.DAOD_SUSY1.e3952_s2608_s2183_r7725_r7676_p2666
mc15_13TeV.301891.Sherpa_CT10_enugammaPt70_140.merge.DAOD_SUSY1.e3952_s2608_s2183_r7725_r7676_p2666
mc15_13TeV.301892.Sherpa_CT10_enugammaPt140.merge.DAOD_SUSY1.e3952_s2608_s2183_r7725_r7676_p2666
mc15_13TeV.301893.Sherpa_CT10_munugammaPt35_70.merge.DAOD_SUSY1.e3952_s2608_s2183_r7725_r7676_p2666
mc15_13TeV.301894.Sherpa_CT10_munugammaPt70_140.merge.DAOD_SUSY1.e3952_s2608_s2183_r7725_r7676_p2666
mc15_13TeV.301895.Sherpa_CT10_munugammaPt140.merge.DAOD_SUSY1.e3952_s2608_s2183_r7725_r7676_p2666
mc15_13TeV.301896.Sherpa_CT10_taunugammaPt35_70.merge.DAOD_SUSY1.e3952_s2608_s2183_r7725_r7676_p2666
mc15_13TeV.301897.Sherpa_CT10_taunugammaPt70_140.merge.DAOD_SUSY1.e3952_s2608_s2183_r7725_r7676_p2666
mc15_13TeV.301898.Sherpa_CT10_taunugammaPt140.merge.DAOD_SUSY1.e3952_s2608_s2183_r7725_r7676_p2666
mc15_13TeV.301899.Sherpa_CT10_eegammaPt35_70.merge.DAOD_SUSY1.e3952_s2608_s2183_r7725_r7676_p2666
mc15_13TeV.301900.Sherpa_CT10_eegammaPt70_140.merge.DAOD_SUSY1.e3952_s2608_s2183_r7725_r7676_p2666
mc15_13TeV.301901.Sherpa_CT10_eegammaPt140.merge.DAOD_SUSY1.e3952_s2608_s2183_r7725_r7676_p2666
mc15_13TeV.301902.Sherpa_CT10_mumugammaPt35_70.merge.DAOD_SUSY1.e3952_s2608_s2183_r7725_r7676_p2666
mc15_13TeV.301903.Sherpa_CT10_mumugammaPt70_140.merge.DAOD_SUSY1.e3952_s2608_s2183_r7725_r7676_p2666
mc15_13TeV.301904.Sherpa_CT10_mumugammaPt140.merge.DAOD_SUSY1.e3952_s2608_s2183_r7725_r7676_p2666
mc15_13TeV.301905.Sherpa_CT10_tautaugammaPt35_70.merge.DAOD_SUSY1.e3952_s2608_s2183_r7725_r7676_p2666
mc15_13TeV.301906.Sherpa_CT10_tautaugammaPt70_140.merge.DAOD_SUSY1.e3952_s2608_s2183_r7725_r7676_p2666
mc15_13TeV.301907.Sherpa_CT10_tautaugammaPt140.merge.DAOD_SUSY1.e3952_s2608_s2183_r7725_r7676_p2666
mc15_13TeV.301908.Sherpa_CT10_nunugammaPt35_70.merge.DAOD_SUSY1.e3952_s2608_s2183_r7725_r7676_p2666
mc15_13TeV.301909.Sherpa_CT10_nunugammaPt70_140.merge.DAOD_SUSY1.e3952_s2608_s2183_r7725_r7676_p2666
mc15_13TeV.301910.Sherpa_CT10_nunugammaPt140.merge.DAOD_SUSY1.e3952_s2608_s2183_r7725_r7676_p2666

#single top
mc15_13TeV.410011.PowhegPythiaEvtGen_P2012_singletop_tchan_lept_top.merge.DAOD_SUSY1.e3824_s2608_s2183_r7725_r7676_p2719
mc15_13TeV.410012.PowhegPythiaEvtGen_P2012_singletop_tchan_lept_antitop.merge.DAOD_SUSY1.e3824_s2608_s2183_r7725_r7676_p2719
mc15_13TeV.410013.PowhegPythiaEvtGen_P2012_Wt_inclusive_top.merge.DAOD_SUSY1.e3753_s2608_s2183_r7725_r7676_p2719
mc15_13TeV.410014.PowhegPythiaEvtGen_P2012_Wt_inclusive_antitop.merge.DAOD_SUSY1.e3753_s2608_s2183_r7725_r7676_p2719
mc15_13TeV.410025.PowhegPythiaEvtGen_P2012_SingleTopSchan_noAllHad_top.merge.DAOD_SUSY1.e3998_s2608_s2183_r7725_r7676_p2719
mc15_13TeV.410026.PowhegPythiaEvtGen_P2012_SingleTopSchan_noAllHad_antitop.merge.DAOD_SUSY1.e3998_s2608_s2183_r7725_r7676_p2666
# for 410026 not a corresponding sample for _p2719

#ttbar
mc15_13TeV.410000.PowhegPythiaEvtGen_P2012_ttbar_hdamp172p5_nonallhad.merge.DAOD_SUSY1.e3698_s2608_s2183_r7725_r7676_p2812 
mc15_13TeV.410001.PowhegPythiaEvtGen_P2012radHi_ttbar_hdamp345_down_nonallhad.merge.DAOD_SUSY1.e3783_s2608_r7725_r7676_p2812
mc15_13TeV.410002.PowhegPythiaEvtGen_P2012radLo_ttbar_hdamp172_up_nonallhad.merge.DAOD_SUSY1.e3783_s2608_r7725_r7676_p2812
mc15_13TeV.410003.aMcAtNloHerwigppEvtGen_ttbar_nonallhad.merge.DAOD_SUSY1.e4441_s2726_r7772_r7676_p2719
mc15_13TeV.410004.PowhegHerwigppEvtGen_UEEE5_ttbar_hdamp172p5_nonallhad.merge.DAOD_SUSY1.e3836_s2726_r7772_r7676_p2812

# Drell Yan
mc15_13TeV.361468.Sherpa_CT10_Zee_Mll10to40_Pt0_70_BVeto.merge.DAOD_SUSY1.e4198_s2608_s2183_r7772_r7676_p2823
mc15_13TeV.361469.Sherpa_CT10_Zee_Mll10to40_Pt0_70_BFilter.merge.DAOD_SUSY1.e4198_s2608_s2183_r7772_r7676_p2823
mc15_13TeV.361470.Sherpa_CT10_Zee_Mll10to40_Pt70_140_BVeto.merge.DAOD_SUSY1.e4198_s2608_s2183_r7772_r7676_p2823
mc15_13TeV.361471.Sherpa_CT10_Zee_Mll10to40_Pt70_140_BFilter.merge.DAOD_SUSY1.e4198_s2608_s2183_r7772_r7676_p2823
mc15_13TeV.361472.Sherpa_CT10_Zee_Mll10to40_Pt140_400_BVeto.merge.DAOD_SUSY1.e4198_s2608_s2183_r7772_r7676_p2823
mc15_13TeV.361473.Sherpa_CT10_Zee_Mll10to40_Pt140_400_BFilter.merge.DAOD_SUSY1.e4198_s2608_s2183_r7772_r7676_p2823
mc15_13TeV.361474.Sherpa_CT10_Zee_Mll10to40_Pt400_E_CMS_BVeto.merge.DAOD_SUSY1.e4198_s2608_s2183_r7772_r7676_p2823
mc15_13TeV.361475.Sherpa_CT10_Zee_Mll10to40_Pt400_E_CMS_BFilter.merge.DAOD_SUSY1.e4198_s2608_s2183_r7772_r7676_p2823
mc15_13TeV.361476.Sherpa_CT10_Zmumu_Mll10to40_Pt0_70_BVeto.merge.DAOD_SUSY1.e4198_s2608_s2183_r7772_r7676_p2823
mc15_13TeV.361477.Sherpa_CT10_Zmumu_Mll10to40_Pt0_70_BFilter.merge.DAOD_SUSY1.e4198_s2608_s2183_r7772_r7676_p2823
mc15_13TeV.361478.Sherpa_CT10_Zmumu_Mll10to40_Pt70_140_BVeto.merge.DAOD_SUSY1.e4198_s2608_s2183_r7772_r7676_p2823
mc15_13TeV.361479.Sherpa_CT10_Zmumu_Mll10to40_Pt70_140_BFilter.merge.DAOD_SUSY1.e4198_s2608_s2183_r7772_r7676_p2823
mc15_13TeV.361480.Sherpa_CT10_Zmumu_Mll10to40_Pt140_400_BVeto.merge.DAOD_SUSY1.e4198_s2608_s2183_r7772_r7676_p2823
mc15_13TeV.361481.Sherpa_CT10_Zmumu_Mll10to40_Pt140_400_BFilter.merge.DAOD_SUSY1.e4198_s2608_s2183_r7772_r7676_p2823
mc15_13TeV.361482.Sherpa_CT10_Zmumu_Mll10to40_Pt400_E_CMS_BVeto.merge.DAOD_SUSY1.e4198_s2608_s2183_r7772_r7676_p2823
mc15_13TeV.361483.Sherpa_CT10_Zmumu_Mll10to40_Pt400_E_CMS_BFilter.merge.DAOD_SUSY1.e4198_s2608_s2183_r7772_r7676_p2823
mc15_13TeV.361484.Sherpa_CT10_Ztautau_Mll10to40_Pt0_70_BVeto.merge.DAOD_SUSY1.e4198_s2608_s2183_r7772_r7676_p2823
mc15_13TeV.361485.Sherpa_CT10_Ztautau_Mll10to40_Pt0_70_BFilter.merge.DAOD_SUSY1.e4198_s2608_s2183_r7772_r7676_p2823
mc15_13TeV.361486.Sherpa_CT10_Ztautau_Mll10to40_Pt70_140_BVeto.merge.DAOD_SUSY1.e4198_s2608_s2183_r7772_r7676_p2823
mc15_13TeV.361487.Sherpa_CT10_Ztautau_Mll10to40_Pt70_140_BFilter.merge.DAOD_SUSY1.e4198_s2608_s2183_r7772_r7676_p2823
mc15_13TeV.361488.Sherpa_CT10_Ztautau_Mll10to40_Pt140_400_BVeto.merge.DAOD_SUSY1.e4198_s2608_s2183_r7772_r7676_p2823
mc15_13TeV.361489.Sherpa_CT10_Ztautau_Mll10to40_Pt140_400_BFilter.merge.DAOD_SUSY1.e4198_s2608_s2183_r7772_r7676_p2823
mc15_13TeV.361490.Sherpa_CT10_Ztautau_Mll10to40_Pt400_E_CMS_BVeto.merge.DAOD_SUSY1.e4198_s2608_s2183_r7772_r7676_p2823
mc15_13TeV.361491.Sherpa_CT10_Ztautau_Mll10to40_Pt400_E_CMS_BFilter.merge.DAOD_SUSY1.e4198_s2608_s2183_r7772_r7676_p2823

# diboson
#Powheg samples
# But the pileup weight tool fails over them, even if the PURW is not applied
mc15_13TeV.361600.PowhegPy8EG_CT10nloME_AZNLOCTEQ6L1_WWlvlv.merge.DAOD_SUSY1.e4616_s2726_r7326_r6282_p2540
mc15_13TeV.361601.PowhegPy8EG_CT10nloME_AZNLOCTEQ6L1_WZlvll_mll4.merge.DAOD_SUSY1.e4475_s2726_r7267_r6282_p2540 
mc15_13TeV.361602.PowhegPy8EG_CT10nloME_AZNLOCTEQ6L1_WZlvvv_mll4.merge.DAOD_SUSY1.e4054_s2608_s2183_r7267_r6282_p2540
mc15_13TeV.361603.PowhegPy8EG_CT10nloME_AZNLOCTEQ6L1_ZZllll_mll4.merge.DAOD_SUSY1.e4475_s2726_r7267_r6282_p2540
mc15_13TeV.361604.PowhegPy8EG_CT10nloME_AZNLOCTEQ6L1_ZZvvll_mll4.merge.DAOD_SUSY1.e4475_s2726_r7267_r6282_p2540
mc15_13TeV.361605.PowhegPy8EG_CT10nloME_AZNLOCTEQ6L1_ZZvvvv_mll4.merge.DAOD_SUSY1.e4054_s2608_s2183_r7267_r6282_p2540
mc15_13TeV.361606.PowhegPy8EG_CT10nloME_AZNLOCTEQ6L1_WWlvqq.merge.DAOD_SUSY1.e4711_s2726_r7326_r6282_p2540
mc15_13TeV.361607.PowhegPy8EG_CT10nloME_AZNLOCTEQ6L1_WZqqll_mll20.merge.DAOD_SUSY1.e4711_s2726_r7326_r6282_p2540
mc15_13TeV.361608.PowhegPy8EG_CT10nloME_AZNLOCTEQ6L1_WZqqvv.merge.DAOD_SUSY1.e4711_s2726_r7326_r6282_p2540
mc15_13TeV.361609.PowhegPy8EG_CT10nloME_AZNLOCTEQ6L1_WZlvqq_mqq20.merge.DAOD_SUSY1.e4711_s2726_r7326_r6282_p2540
mc15_13TeV.361610.PowhegPy8EG_CT10nloME_AZNLOCTEQ6L1_ZZqqll_mqq20mll20.merge.DAOD_SUSY1.e4711_s2726_r7326_r6282_p2540
mc15_13TeV.361611.PowhegPy8EG_CT10nloME_AZNLOCTEQ6L1_ZZvvqq_mqq20.merge.DAOD_SUSY1.e4711_s2726_r7326_r6282_p2540
#missing 342556 (PowhegPy8EG_CT10nloME_AZNLOCTEQ6L1_ZZllll_mll4_m4l_100_150)

#diboson
#sherpa samples 361063-361068 , 361091-361097 
#for some samples there is a newer ptag _p2874 available but not all of them , therefore I have kept the ptag consistent  in the same group of samples
mc15_13TeV.361063.Sherpa_CT10_llll.merge.DAOD_SUSY1.e3836_s2608_s2183_r7725_r7676_p2666
mc15_13TeV.361064.Sherpa_CT10_lllvSFMinus.merge.DAOD_SUSY1.e3836_s2608_s2183_r7725_r7676_p2666
mc15_13TeV.361065.Sherpa_CT10_lllvOFMinus.merge.DAOD_SUSY1.e3836_s2608_s2183_r7725_r7676_p2666
mc15_13TeV.361066.Sherpa_CT10_lllvSFPlus.merge.DAOD_SUSY1.e3836_s2608_s2183_r7725_r7676_p2666
mc15_13TeV.361067.Sherpa_CT10_lllvOFPlus.merge.DAOD_SUSY1.e3836_s2608_s2183_r7725_r7676_p2666
mc15_13TeV.361068.Sherpa_CT10_llvv.merge.DAOD_SUSY1.e3836_s2608_s2183_r7725_r7676_p2666
mc15_13TeV.361070.Sherpa_CT10_llvvjj_ss_EW6.merge.DAOD_SUSY1.e3836_s2608_s2183_r7725_r7676_p2666
mc15_13TeV.361071.Sherpa_CT10_lllvjj_EW6.merge.DAOD_SUSY1.e3836_s2726_r7772_r7676_p2666
mc15_13TeV.361072.Sherpa_CT10_lllljj_EW6.merge.DAOD_SUSY1.e3836_s2608_s2183_r7772_r7676_p2666
mc15_13TeV.361077.Sherpa_CT10_ggllvv.merge.DAOD_SUSY1.e4641_s2726_r7772_r7676_p2666
mc15_13TeV.361088.Sherpa_CT10_lvvv.merge.DAOD_SUSY1.e4483_s2726_r7772_r7676_p2666
mc15_13TeV.361089.Sherpa_CT10_vvvv.merge.DAOD_SUSY1.e4483_s2726_r7772_r7676_p2666
mc15_13TeV.361091.Sherpa_CT10_WplvWmqq_SHv21_improved.merge.DAOD_SUSY1.e4607_s2726_r7772_r7676_p2708
mc15_13TeV.361092.Sherpa_CT10_WpqqWmlv_SHv21_improved.merge.DAOD_SUSY1.e4607_s2726_r7772_r7676_p2708
mc15_13TeV.361093.Sherpa_CT10_WlvZqq_SHv21_improved.merge.DAOD_SUSY1.e4607_s2726_r7772_r7676_p2708
mc15_13TeV.361094.Sherpa_CT10_WqqZll_SHv21_improved.merge.DAOD_SUSY1.e4607_s2726_r7772_r7676_p2708
mc15_13TeV.361095.Sherpa_CT10_WqqZvv_SHv21_improved.merge.DAOD_SUSY1.e4607_s2726_r7772_r7676_p2708
mc15_13TeV.361096.Sherpa_CT10_ZqqZll_SHv21_improved.merge.DAOD_SUSY1.e4607_s2726_r7772_r7676_p2708
mc15_13TeV.361097.Sherpa_CT10_ZqqZvv_SHv21_improved.merge.DAOD_SUSY1.e4607_s2726_r7772_r7676_p2708 

#W+jets 
# for some of these samples there is newer tag p2874, but I have left the same ptag for everyone, i.e. p2666
# Wjets ( Sherpa 2.2.0)
mc15_13TeV.363331.Sherpa_NNPDF30NNLO_Wtaunu_Pt0_70_CVetoBVeto.merge.DAOD_SUSY1.e4709_s2726_r7725_r7676_p2666
mc15_13TeV.363332.Sherpa_NNPDF30NNLO_Wtaunu_Pt0_70_CFilterBVeto.merge.DAOD_SUSY1.e4709_s2726_r7725_r7676_p2666
mc15_13TeV.363333.Sherpa_NNPDF30NNLO_Wtaunu_Pt0_70_BFilter.merge.DAOD_SUSY1.e4709_s2726_r7725_r7676_p2666
mc15_13TeV.363334.Sherpa_NNPDF30NNLO_Wtaunu_Pt70_140_CVetoBVeto.merge.DAOD_SUSY1.e4709_s2726_r7725_r7676_p2666
mc15_13TeV.363335.Sherpa_NNPDF30NNLO_Wtaunu_Pt70_140_CFilterBVeto.merge.DAOD_SUSY1.e4709_s2726_r7725_r7676_p2666
mc15_13TeV.363336.Sherpa_NNPDF30NNLO_Wtaunu_Pt70_140_BFilter.merge.DAOD_SUSY1.e4779_s2726_r7725_r7676_p2666
mc15_13TeV.363337.Sherpa_NNPDF30NNLO_Wtaunu_Pt140_280_CVetoBVeto.merge.DAOD_SUSY1.e4709_s2726_r7725_r7676_p2666
mc15_13TeV.363338.Sherpa_NNPDF30NNLO_Wtaunu_Pt140_280_CFilterBVeto.merge.DAOD_SUSY1.e4709_s2726_r7725_r7676_p2666
mc15_13TeV.363339.Sherpa_NNPDF30NNLO_Wtaunu_Pt140_280_BFilter.merge.DAOD_SUSY1.e4709_s2726_r7725_r7676_p2666
mc15_13TeV.363340.Sherpa_NNPDF30NNLO_Wtaunu_Pt280_500_CVetoBVeto.merge.DAOD_SUSY1.e4709_s2726_r7725_r7676_p2666
mc15_13TeV.363341.Sherpa_NNPDF30NNLO_Wtaunu_Pt280_500_CFilterBVeto.merge.DAOD_SUSY1.e4779_s2726_r7725_r7676_p2666
mc15_13TeV.363342.Sherpa_NNPDF30NNLO_Wtaunu_Pt280_500_BFilter.merge.DAOD_SUSY1.e4779_s2726_r7725_r7676_p2666
mc15_13TeV.363343.Sherpa_NNPDF30NNLO_Wtaunu_Pt500_700_CVetoBVeto.merge.DAOD_SUSY1.e4709_s2726_r7725_r7676_p2666
mc15_13TeV.363344.Sherpa_NNPDF30NNLO_Wtaunu_Pt500_700_CFilterBVeto.merge.DAOD_SUSY1.e4709_s2726_r7725_r7676_p2666
mc15_13TeV.363345.Sherpa_NNPDF30NNLO_Wtaunu_Pt500_700_BFilter.merge.DAOD_SUSY1.e4779_s2726_r7725_r7676_p2666
mc15_13TeV.363346.Sherpa_NNPDF30NNLO_Wtaunu_Pt700_1000_CVetoBVeto.merge.DAOD_SUSY1.e4709_s2726_r7725_r7676_p2666
mc15_13TeV.363347.Sherpa_NNPDF30NNLO_Wtaunu_Pt700_1000_CFilterBVeto.merge.DAOD_SUSY1.e4709_s2726_r7725_r7676_p2666
mc15_13TeV.363348.Sherpa_NNPDF30NNLO_Wtaunu_Pt700_1000_BFilter.merge.DAOD_SUSY1.e4779_s2726_r7725_r7676_p2666
mc15_13TeV.363349.Sherpa_NNPDF30NNLO_Wtaunu_Pt1000_2000_CVetoBVeto.merge.DAOD_SUSY1.e4709_s2726_r7725_r7676_p2666
mc15_13TeV.363350.Sherpa_NNPDF30NNLO_Wtaunu_Pt1000_2000_CFilterBVeto.merge.DAOD_SUSY1.e4709_s2726_r7725_r7676_p2666
mc15_13TeV.363351.Sherpa_NNPDF30NNLO_Wtaunu_Pt1000_2000_BFilter.merge.DAOD_SUSY1.e4779_s2726_r7725_r7676_p2666
mc15_13TeV.363352.Sherpa_NNPDF30NNLO_Wtaunu_Pt2000_E_CMS_CVetoBVeto.merge.DAOD_SUSY1.e4709_s2726_r7725_r7676_p2666
mc15_13TeV.363353.Sherpa_NNPDF30NNLO_Wtaunu_Pt2000_E_CMS_CFilterBVeto.merge.DAOD_SUSY1.e4709_s2726_r7725_r7676_p2666
mc15_13TeV.363354.Sherpa_NNPDF30NNLO_Wtaunu_Pt2000_E_CMS_BFilter.merge.DAOD_SUSY1.e4709_s2726_r7725_r7676_p2666
mc15_13TeV.363436.Sherpa_NNPDF30NNLO_Wmunu_Pt0_70_CVetoBVeto.merge.DAOD_SUSY1.e4715_s2726_r7725_r7676_p2666
mc15_13TeV.363437.Sherpa_NNPDF30NNLO_Wmunu_Pt0_70_CFilterBVeto.merge.DAOD_SUSY1.e4715_s2726_r7725_r7676_p2666
mc15_13TeV.363438.Sherpa_NNPDF30NNLO_Wmunu_Pt0_70_BFilter.merge.DAOD_SUSY1.e4715_s2726_r7725_r7676_p2666
mc15_13TeV.363439.Sherpa_NNPDF30NNLO_Wmunu_Pt70_140_CVetoBVeto.merge.DAOD_SUSY1.e4715_s2726_r7725_r7676_p2666
mc15_13TeV.363440.Sherpa_NNPDF30NNLO_Wmunu_Pt70_140_CFilterBVeto.merge.DAOD_SUSY1.e4715_s2726_r7725_r7676_p2666
mc15_13TeV.363441.Sherpa_NNPDF30NNLO_Wmunu_Pt70_140_BFilter.merge.DAOD_SUSY1.e4771_s2726_r7725_r7676_p2666
mc15_13TeV.363442.Sherpa_NNPDF30NNLO_Wmunu_Pt140_280_CVetoBVeto.merge.DAOD_SUSY1.e4715_s2726_r7725_r7676_p2666
mc15_13TeV.363443.Sherpa_NNPDF30NNLO_Wmunu_Pt140_280_CFilterBVeto.merge.DAOD_SUSY1.e4715_s2726_r7725_r7676_p2666
mc15_13TeV.363444.Sherpa_NNPDF30NNLO_Wmunu_Pt140_280_BFilter.merge.DAOD_SUSY1.e4715_s2726_r7725_r7676_p2666
mc15_13TeV.363445.Sherpa_NNPDF30NNLO_Wmunu_Pt280_500_CVetoBVeto.merge.DAOD_SUSY1.e4715_s2726_r7725_r7676_p2666
mc15_13TeV.363446.Sherpa_NNPDF30NNLO_Wmunu_Pt280_500_CFilterBVeto.merge.DAOD_SUSY1.e4715_s2726_r7725_r7676_p2666
mc15_13TeV.363447.Sherpa_NNPDF30NNLO_Wmunu_Pt280_500_BFilter.merge.DAOD_SUSY1.e4715_s2726_r7725_r7676_p2666
mc15_13TeV.363448.Sherpa_NNPDF30NNLO_Wmunu_Pt500_700_CVetoBVeto.merge.DAOD_SUSY1.e4715_s2726_r7725_r7676_p2666
mc15_13TeV.363449.Sherpa_NNPDF30NNLO_Wmunu_Pt500_700_CFilterBVeto.merge.DAOD_SUSY1.e4715_s2726_r7725_r7676_p2666
mc15_13TeV.363450.Sherpa_NNPDF30NNLO_Wmunu_Pt500_700_BFilter.merge.DAOD_SUSY1.e4715_s2726_r7725_r7676_p2666
mc15_13TeV.363451.Sherpa_NNPDF30NNLO_Wmunu_Pt700_1000_CVetoBVeto.merge.DAOD_SUSY1.e4715_s2726_r7725_r7676_p2666
mc15_13TeV.363452.Sherpa_NNPDF30NNLO_Wmunu_Pt700_1000_CFilterBVeto.merge.DAOD_SUSY1.e4715_s2726_r7725_r7676_p2666
mc15_13TeV.363453.Sherpa_NNPDF30NNLO_Wmunu_Pt700_1000_BFilter.merge.DAOD_SUSY1.e4715_s2726_r7725_r7676_p2666
mc15_13TeV.363454.Sherpa_NNPDF30NNLO_Wmunu_Pt1000_2000_CVetoBVeto.merge.DAOD_SUSY1.e4715_s2726_r7725_r7676_p2666
mc15_13TeV.363455.Sherpa_NNPDF30NNLO_Wmunu_Pt1000_2000_CFilterBVeto.merge.DAOD_SUSY1.e4715_s2726_r7725_r7676_p2666
mc15_13TeV.363456.Sherpa_NNPDF30NNLO_Wmunu_Pt1000_2000_BFilter.merge.DAOD_SUSY1.e4715_s2726_r7725_r7676_p2666
mc15_13TeV.363457.Sherpa_NNPDF30NNLO_Wmunu_Pt2000_E_CMS_CVetoBVeto.merge.DAOD_SUSY1.e4715_s2726_r7725_r7676_p2666
mc15_13TeV.363458.Sherpa_NNPDF30NNLO_Wmunu_Pt2000_E_CMS_CFilterBVeto.merge.DAOD_SUSY1.e4715_s2726_r7725_r7676_p2666
mc15_13TeV.363459.Sherpa_NNPDF30NNLO_Wmunu_Pt2000_E_CMS_BFilter.merge.DAOD_SUSY1.e4715_s2726_r7725_r7676_p2666
mc15_13TeV.363460.Sherpa_NNPDF30NNLO_Wenu_Pt0_70_CVetoBVeto.merge.DAOD_SUSY1.e4715_s2726_r7725_r7676_p2666
mc15_13TeV.363461.Sherpa_NNPDF30NNLO_Wenu_Pt0_70_CFilterBVeto.merge.DAOD_SUSY1.e4715_s2726_r7725_r7676_p2666
mc15_13TeV.363462.Sherpa_NNPDF30NNLO_Wenu_Pt0_70_BFilter.merge.DAOD_SUSY1.e4715_s2726_r7725_r7676_p2666
mc15_13TeV.363463.Sherpa_NNPDF30NNLO_Wenu_Pt70_140_CVetoBVeto.merge.DAOD_SUSY1.e4715_s2726_r7725_r7676_p2666
mc15_13TeV.363464.Sherpa_NNPDF30NNLO_Wenu_Pt70_140_CFilterBVeto.merge.DAOD_SUSY1.e4715_s2726_r7725_r7676_p2666
mc15_13TeV.363465.Sherpa_NNPDF30NNLO_Wenu_Pt70_140_BFilter.merge.DAOD_SUSY1.e4715_s2726_r7725_r7676_p2666
mc15_13TeV.363466.Sherpa_NNPDF30NNLO_Wenu_Pt140_280_CVetoBVeto.merge.DAOD_SUSY1.e4715_s2726_r7725_r7676_p2666
mc15_13TeV.363467.Sherpa_NNPDF30NNLO_Wenu_Pt140_280_CFilterBVeto.merge.DAOD_SUSY1.e4715_s2726_r7725_r7676_p2666
mc15_13TeV.363468.Sherpa_NNPDF30NNLO_Wenu_Pt140_280_BFilter.merge.DAOD_SUSY1.e4715_s2726_r7725_r7676_p2666
mc15_13TeV.363469.Sherpa_NNPDF30NNLO_Wenu_Pt280_500_CVetoBVeto.merge.DAOD_SUSY1.e4715_s2726_r7725_r7676_p2666
mc15_13TeV.363470.Sherpa_NNPDF30NNLO_Wenu_Pt280_500_CFilterBVeto.merge.DAOD_SUSY1.e4715_s2726_r7725_r7676_p2666
mc15_13TeV.363471.Sherpa_NNPDF30NNLO_Wenu_Pt280_500_BFilter.merge.DAOD_SUSY1.e4715_s2726_r7725_r7676_p2666
mc15_13TeV.363472.Sherpa_NNPDF30NNLO_Wenu_Pt500_700_CVetoBVeto.merge.DAOD_SUSY1.e4715_s2726_r7725_r7676_p2666
mc15_13TeV.363473.Sherpa_NNPDF30NNLO_Wenu_Pt500_700_CFilterBVeto.merge.DAOD_SUSY1.e4715_s2726_r7725_r7676_p2666
mc15_13TeV.363474.Sherpa_NNPDF30NNLO_Wenu_Pt500_700_BFilter.merge.DAOD_SUSY1.e4771_s2726_r7725_r7676_p2666
mc15_13TeV.363475.Sherpa_NNPDF30NNLO_Wenu_Pt700_1000_CVetoBVeto.merge.DAOD_SUSY1.e4715_s2726_r7725_r7676_p2666
mc15_13TeV.363476.Sherpa_NNPDF30NNLO_Wenu_Pt700_1000_CFilterBVeto.merge.DAOD_SUSY1.e4715_s2726_r7725_r7676_p2666
mc15_13TeV.363477.Sherpa_NNPDF30NNLO_Wenu_Pt700_1000_BFilter.merge.DAOD_SUSY1.e4715_s2726_r7725_r7676_p2666
mc15_13TeV.363478.Sherpa_NNPDF30NNLO_Wenu_Pt1000_2000_CVetoBVeto.merge.DAOD_SUSY1.e4715_s2726_r7725_r7676_p2666
mc15_13TeV.363479.Sherpa_NNPDF30NNLO_Wenu_Pt1000_2000_CFilterBVeto.merge.DAOD_SUSY1.e4715_s2726_r7725_r7676_p2666
mc15_13TeV.363480.Sherpa_NNPDF30NNLO_Wenu_Pt1000_2000_BFilter.merge.DAOD_SUSY1.e4715_s2726_r7725_r7676_p2666
mc15_13TeV.363481.Sherpa_NNPDF30NNLO_Wenu_Pt2000_E_CMS_CVetoBVeto.merge.DAOD_SUSY1.e4715_s2726_r7725_r7676_p2666
mc15_13TeV.363482.Sherpa_NNPDF30NNLO_Wenu_Pt2000_E_CMS_CFilterBVeto.merge.DAOD_SUSY1.e4715_s2726_r7772_r7676_p2666
mc15_13TeV.363483.Sherpa_NNPDF30NNLO_Wenu_Pt2000_E_CMS_BFilter.merge.DAOD_SUSY1.e4715_s2726_r7725_r7676_p2666



#Z jets
# same comments as W+jets
mc15_13TeV.363361.Sherpa_NNPDF30NNLO_Ztautau_Pt0_70_CVetoBVeto.merge.DAOD_SUSY1.e4689_s2726_r7725_r7676_p2666
mc15_13TeV.363362.Sherpa_NNPDF30NNLO_Ztautau_Pt0_70_CFilterBVeto.merge.DAOD_SUSY1.e4689_s2726_r7725_r7676_p2666
mc15_13TeV.363363.Sherpa_NNPDF30NNLO_Ztautau_Pt0_70_BFilter.merge.DAOD_SUSY1.e4743_s2726_r7725_r7676_p2666
mc15_13TeV.363102.Sherpa_NNPDF30NNLO_Ztautau_Pt70_140_CVetoBVeto.merge.DAOD_SUSY1.e4742_s2726_r7725_r7676_p2666
mc15_13TeV.363103.Sherpa_NNPDF30NNLO_Ztautau_Pt70_140_CFilterBVeto.merge.DAOD_SUSY1.e4742_s2726_r7725_r7676_p2666
mc15_13TeV.363104.Sherpa_NNPDF30NNLO_Ztautau_Pt70_140_BFilter.merge.DAOD_SUSY1.e4792_s2726_r7725_r7676_p2666
mc15_13TeV.363105.Sherpa_NNPDF30NNLO_Ztautau_Pt140_280_CVetoBVeto.merge.DAOD_SUSY1.e4666_s2726_r7725_r7676_p2666
mc15_13TeV.363106.Sherpa_NNPDF30NNLO_Ztautau_Pt140_280_CFilterBVeto.merge.DAOD_SUSY1.e4666_s2726_r7725_r7676_p2666
mc15_13TeV.363107.Sherpa_NNPDF30NNLO_Ztautau_Pt140_280_BFilter.merge.DAOD_SUSY1.e4742_s2726_r7725_r7676_p2666
mc15_13TeV.363108.Sherpa_NNPDF30NNLO_Ztautau_Pt280_500_CVetoBVeto.merge.DAOD_SUSY1.e4666_s2726_r7725_r7676_p2666
mc15_13TeV.363109.Sherpa_NNPDF30NNLO_Ztautau_Pt280_500_CFilterBVeto.merge.DAOD_SUSY1.e4792_s2726_r7725_r7676_p2666
mc15_13TeV.363110.Sherpa_NNPDF30NNLO_Ztautau_Pt280_500_BFilter.merge.DAOD_SUSY1.e4792_s2726_r7725_r7676_p2666
mc15_13TeV.363111.Sherpa_NNPDF30NNLO_Ztautau_Pt500_700_CVetoBVeto.merge.DAOD_SUSY1.e4666_s2726_r7725_r7676_p2666
mc15_13TeV.363112.Sherpa_NNPDF30NNLO_Ztautau_Pt500_700_CFilterBVeto.merge.DAOD_SUSY1.e4742_s2726_r7725_r7676_p2666
mc15_13TeV.363113.Sherpa_NNPDF30NNLO_Ztautau_Pt500_700_BFilter.merge.DAOD_SUSY1.e4742_s2726_r7725_r7676_p2666
mc15_13TeV.363114.Sherpa_NNPDF30NNLO_Ztautau_Pt700_1000_CVetoBVeto.merge.DAOD_SUSY1.e4742_s2726_r7725_r7676_p2666
mc15_13TeV.363115.Sherpa_NNPDF30NNLO_Ztautau_Pt700_1000_CFilterBVeto.merge.DAOD_SUSY1.e4792_s2726_r7725_r7676_p2666
mc15_13TeV.363116.Sherpa_NNPDF30NNLO_Ztautau_Pt700_1000_BFilter.merge.DAOD_SUSY1.e4742_s2726_r7725_r7676_p2666
mc15_13TeV.363117.Sherpa_NNPDF30NNLO_Ztautau_Pt1000_2000_CVetoBVeto.merge.DAOD_SUSY1.e4666_s2726_r7725_r7676_p2666
mc15_13TeV.363118.Sherpa_NNPDF30NNLO_Ztautau_Pt1000_2000_CFilterBVeto.merge.DAOD_SUSY1.e4666_s2726_r7725_r7676_p2666
mc15_13TeV.363119.Sherpa_NNPDF30NNLO_Ztautau_Pt1000_2000_BFilter.merge.DAOD_SUSY1.e4666_s2726_r7725_r7676_p2666
mc15_13TeV.363120.Sherpa_NNPDF30NNLO_Ztautau_Pt2000_E_CMS_CVetoBVeto.merge.DAOD_SUSY1.e4690_s2726_r7725_r7676_p2666
mc15_13TeV.363121.Sherpa_NNPDF30NNLO_Ztautau_Pt2000_E_CMS_CFilterBVeto.merge.DAOD_SUSY1.e4690_s2726_r7725_r7676_p2666
mc15_13TeV.363122.Sherpa_NNPDF30NNLO_Ztautau_Pt2000_E_CMS_BFilter.merge.DAOD_SUSY1.e4792_s2726_r7725_r7676_p2666
mc15_13TeV.363364.Sherpa_NNPDF30NNLO_Zmumu_Pt0_70_CVetoBVeto.merge.DAOD_SUSY1.e4716_s2726_r7725_r7676_p2666
mc15_13TeV.363365.Sherpa_NNPDF30NNLO_Zmumu_Pt0_70_CFilterBVeto.merge.DAOD_SUSY1.e4716_s2726_r7725_r7676_p2874
mc15_13TeV.363366.Sherpa_NNPDF30NNLO_Zmumu_Pt0_70_BFilter.merge.DAOD_SUSY1.e4716_s2726_r7725_r7676_p2666
mc15_13TeV.363367.Sherpa_NNPDF30NNLO_Zmumu_Pt70_140_CVetoBVeto.merge.DAOD_SUSY1.e4716_s2726_r7725_r7676_p2666
mc15_13TeV.363368.Sherpa_NNPDF30NNLO_Zmumu_Pt70_140_CFilterBVeto.merge.DAOD_SUSY1.e4716_s2726_r7725_r7676_p2666
mc15_13TeV.363369.Sherpa_NNPDF30NNLO_Zmumu_Pt70_140_BFilter.merge.DAOD_SUSY1.e4716_s2726_r7725_r7676_p2666
mc15_13TeV.363370.Sherpa_NNPDF30NNLO_Zmumu_Pt140_280_CVetoBVeto.merge.DAOD_SUSY1.e4716_s2726_r7725_r7676_p2666
mc15_13TeV.363371.Sherpa_NNPDF30NNLO_Zmumu_Pt140_280_CFilterBVeto.merge.DAOD_SUSY1.e4716_s2726_r7725_r7676_p2666
mc15_13TeV.363372.Sherpa_NNPDF30NNLO_Zmumu_Pt140_280_BFilter.merge.DAOD_SUSY1.e4716_s2726_r7725_r7676_p2666
mc15_13TeV.363373.Sherpa_NNPDF30NNLO_Zmumu_Pt280_500_CVetoBVeto.merge.DAOD_SUSY1.e4716_s2726_r7725_r7676_p2666
mc15_13TeV.363374.Sherpa_NNPDF30NNLO_Zmumu_Pt280_500_CFilterBVeto.merge.DAOD_SUSY1.e4716_s2726_r7725_r7676_p2666
mc15_13TeV.363375.Sherpa_NNPDF30NNLO_Zmumu_Pt280_500_BFilter.merge.DAOD_SUSY1.e4772_s2726_r7725_r7676_p2666
mc15_13TeV.363376.Sherpa_NNPDF30NNLO_Zmumu_Pt500_700_CVetoBVeto.merge.DAOD_SUSY1.e4716_s2726_r7725_r7676_p2666
mc15_13TeV.363377.Sherpa_NNPDF30NNLO_Zmumu_Pt500_700_CFilterBVeto.merge.DAOD_SUSY1.e4716_s2726_r7725_r7676_p2666
mc15_13TeV.363378.Sherpa_NNPDF30NNLO_Zmumu_Pt500_700_BFilter.merge.DAOD_SUSY1.e4772_s2726_r7725_r7676_p2666
mc15_13TeV.363379.Sherpa_NNPDF30NNLO_Zmumu_Pt700_1000_CVetoBVeto.merge.DAOD_SUSY1.e4716_s2726_r7725_r7676_p2666
mc15_13TeV.363380.Sherpa_NNPDF30NNLO_Zmumu_Pt700_1000_CFilterBVeto.merge.DAOD_SUSY1.e4716_s2726_r7725_r7676_p2666
mc15_13TeV.363381.Sherpa_NNPDF30NNLO_Zmumu_Pt700_1000_BFilter.merge.DAOD_SUSY1.e4716_s2726_r7725_r7676_p2666
mc15_13TeV.363382.Sherpa_NNPDF30NNLO_Zmumu_Pt1000_2000_CVetoBVeto.merge.DAOD_SUSY1.e4716_s2726_r7725_r7676_p2666
mc15_13TeV.363383.Sherpa_NNPDF30NNLO_Zmumu_Pt1000_2000_CFilterBVeto.merge.DAOD_SUSY1.e4716_s2726_r7725_r7676_p2666
mc15_13TeV.363384.Sherpa_NNPDF30NNLO_Zmumu_Pt1000_2000_BFilter.merge.DAOD_SUSY1.e4716_s2726_r7725_r7676_p2666
mc15_13TeV.363385.Sherpa_NNPDF30NNLO_Zmumu_Pt2000_E_CMS_CVetoBVeto.merge.DAOD_SUSY1.e4716_s2726_r7725_r7676_p2666
mc15_13TeV.363386.Sherpa_NNPDF30NNLO_Zmumu_Pt2000_E_CMS_CFilterBVeto.merge.DAOD_SUSY1.e4716_s2726_r7725_r7676_p2666
mc15_13TeV.363387.Sherpa_NNPDF30NNLO_Zmumu_Pt2000_E_CMS_BFilter.merge.DAOD_SUSY1.e4716_s2726_r7725_r7676_p2666
mc15_13TeV.363388.Sherpa_NNPDF30NNLO_Zee_Pt0_70_CVetoBVeto.merge.DAOD_SUSY1.e4716_s2726_r7725_r7676_p2666
mc15_13TeV.363389.Sherpa_NNPDF30NNLO_Zee_Pt0_70_CFilterBVeto.merge.DAOD_SUSY1.e4716_s2726_r7725_r7676_p2666
mc15_13TeV.363390.Sherpa_NNPDF30NNLO_Zee_Pt0_70_BFilter.merge.DAOD_SUSY1.e4716_s2726_r7725_r7676_p2666
mc15_13TeV.363391.Sherpa_NNPDF30NNLO_Zee_Pt70_140_CVetoBVeto.merge.DAOD_SUSY1.e4716_s2726_r7725_r7676_p2666
mc15_13TeV.363392.Sherpa_NNPDF30NNLO_Zee_Pt70_140_CFilterBVeto.merge.DAOD_SUSY1.e4772_s2726_r7725_r7676_p2666
mc15_13TeV.363393.Sherpa_NNPDF30NNLO_Zee_Pt70_140_BFilter.merge.DAOD_SUSY1.e4716_s2726_r7725_r7676_p2666
mc15_13TeV.363394.Sherpa_NNPDF30NNLO_Zee_Pt140_280_CVetoBVeto.merge.DAOD_SUSY1.e4716_s2726_r7725_r7676_p2666
mc15_13TeV.363395.Sherpa_NNPDF30NNLO_Zee_Pt140_280_CFilterBVeto.merge.DAOD_SUSY1.e4716_s2726_r7725_r7676_p2666
mc15_13TeV.363396.Sherpa_NNPDF30NNLO_Zee_Pt140_280_BFilter.merge.DAOD_SUSY1.e4772_s2726_r7725_r7676_p2666
mc15_13TeV.363397.Sherpa_NNPDF30NNLO_Zee_Pt280_500_CVetoBVeto.merge.DAOD_SUSY1.e4716_s2726_r7725_r7676_p2666
mc15_13TeV.363398.Sherpa_NNPDF30NNLO_Zee_Pt280_500_CFilterBVeto.merge.DAOD_SUSY1.e4716_s2726_r7725_r7676_p2666
mc15_13TeV.363399.Sherpa_NNPDF30NNLO_Zee_Pt280_500_BFilter.merge.DAOD_SUSY1.e4772_s2726_r7725_r7676_p2666
mc15_13TeV.363400.Sherpa_NNPDF30NNLO_Zee_Pt500_700_CVetoBVeto.merge.DAOD_SUSY1.e4716_s2726_r7725_r7676_p2666
mc15_13TeV.363401.Sherpa_NNPDF30NNLO_Zee_Pt500_700_CFilterBVeto.merge.DAOD_SUSY1.e4716_s2726_r7725_r7676_p2666
mc15_13TeV.363402.Sherpa_NNPDF30NNLO_Zee_Pt500_700_BFilter.merge.DAOD_SUSY1.e4716_s2726_r7725_r7676_p2666
mc15_13TeV.363403.Sherpa_NNPDF30NNLO_Zee_Pt700_1000_CVetoBVeto.merge.DAOD_SUSY1.e4716_s2726_r7725_r7676_p2666
mc15_13TeV.363404.Sherpa_NNPDF30NNLO_Zee_Pt700_1000_CFilterBVeto.merge.DAOD_SUSY1.e4716_s2726_r7725_r7676_p2666
mc15_13TeV.363405.Sherpa_NNPDF30NNLO_Zee_Pt700_1000_BFilter.merge.DAOD_SUSY1.e4716_s2726_r7725_r7676_p2666
mc15_13TeV.363406.Sherpa_NNPDF30NNLO_Zee_Pt1000_2000_CVetoBVeto.merge.DAOD_SUSY1.e4716_s2726_r7725_r7676_p2666
mc15_13TeV.363407.Sherpa_NNPDF30NNLO_Zee_Pt1000_2000_CFilterBVeto.merge.DAOD_SUSY1.e4716_s2726_r7725_r7676_p2666
mc15_13TeV.363408.Sherpa_NNPDF30NNLO_Zee_Pt1000_2000_BFilter.merge.DAOD_SUSY1.e4772_s2726_r7725_r7676_p2666
mc15_13TeV.363409.Sherpa_NNPDF30NNLO_Zee_Pt2000_E_CMS_CVetoBVeto.merge.DAOD_SUSY1.e4716_s2726_r7725_r7676_p2666
mc15_13TeV.363410.Sherpa_NNPDF30NNLO_Zee_Pt2000_E_CMS_CFilterBVeto.merge.DAOD_SUSY1.e4716_s2726_r7725_r7676_p2666
mc15_13TeV.363411.Sherpa_NNPDF30NNLO_Zee_Pt2000_E_CMS_BFilter.merge.DAOD_SUSY1.e4772_s2726_r7725_r7676_p2666
mc15_13TeV.363412.Sherpa_NNPDF30NNLO_Znunu_Pt0_70_CVetoBVeto.merge.DAOD_SUSY1.e4716_s2726_r7772_r7676_p2666
mc15_13TeV.363413.Sherpa_NNPDF30NNLO_Znunu_Pt0_70_CFilterBVeto.merge.DAOD_SUSY1.e4716_s2726_r7772_r7676_p2666
mc15_13TeV.363414.Sherpa_NNPDF30NNLO_Znunu_Pt0_70_BFilter.merge.DAOD_SUSY1.e4716_s2726_r7772_r7676_p2666
mc15_13TeV.363415.Sherpa_NNPDF30NNLO_Znunu_Pt70_140_CVetoBVeto.merge.DAOD_SUSY1.e4716_s2726_r7772_r7676_p2666
mc15_13TeV.363416.Sherpa_NNPDF30NNLO_Znunu_Pt70_140_CFilterBVeto.merge.DAOD_SUSY1.e4716_s2726_r7772_r7676_p2666
mc15_13TeV.363417.Sherpa_NNPDF30NNLO_Znunu_Pt70_140_BFilter.merge.DAOD_SUSY1.e4772_s2726_r7772_r7676_p2666
mc15_13TeV.363418.Sherpa_NNPDF30NNLO_Znunu_Pt140_280_CVetoBVeto.merge.DAOD_SUSY1.e4716_s2726_r7772_r7676_p2666
mc15_13TeV.363419.Sherpa_NNPDF30NNLO_Znunu_Pt140_280_CFilterBVeto.merge.DAOD_SUSY1.e4716_s2726_r7772_r7676_p2666
mc15_13TeV.363420.Sherpa_NNPDF30NNLO_Znunu_Pt140_280_BFilter.merge.DAOD_SUSY1.e4772_s2726_r7772_r7676_p2666
mc15_13TeV.363421.Sherpa_NNPDF30NNLO_Znunu_Pt280_500_CVetoBVeto.merge.DAOD_SUSY1.e4716_s2726_r7772_r7676_p2666
mc15_13TeV.363422.Sherpa_NNPDF30NNLO_Znunu_Pt280_500_CFilterBVeto.merge.DAOD_SUSY1.e4716_s2726_r7772_r7676_p2666
mc15_13TeV.363423.Sherpa_NNPDF30NNLO_Znunu_Pt280_500_BFilter.merge.DAOD_SUSY1.e4716_s2726_r7772_r7676_p2666
mc15_13TeV.363424.Sherpa_NNPDF30NNLO_Znunu_Pt500_700_CVetoBVeto.merge.DAOD_SUSY1.e4716_s2726_r7772_r7676_p2666
mc15_13TeV.363425.Sherpa_NNPDF30NNLO_Znunu_Pt500_700_CFilterBVeto.merge.DAOD_SUSY1.e4716_s2726_r7772_r7676_p2666
mc15_13TeV.363426.Sherpa_NNPDF30NNLO_Znunu_Pt500_700_BFilter.merge.DAOD_SUSY1.e4716_s2726_r7772_r7676_p2666
mc15_13TeV.363427.Sherpa_NNPDF30NNLO_Znunu_Pt700_1000_CVetoBVeto.merge.DAOD_SUSY1.e4716_s2726_r7772_r7676_p2666
mc15_13TeV.363428.Sherpa_NNPDF30NNLO_Znunu_Pt700_1000_CFilterBVeto.merge.DAOD_SUSY1.e4716_s2726_r7772_r7676_p2666
mc15_13TeV.363429.Sherpa_NNPDF30NNLO_Znunu_Pt700_1000_BFilter.merge.DAOD_SUSY1.e4716_s2726_r7772_r7676_p2666
mc15_13TeV.363430.Sherpa_NNPDF30NNLO_Znunu_Pt1000_2000_CVetoBVeto.merge.DAOD_SUSY1.e4716_s2726_r7772_r7676_p2666
mc15_13TeV.363431.Sherpa_NNPDF30NNLO_Znunu_Pt1000_2000_CFilterBVeto.merge.DAOD_SUSY1.e4716_s2726_r7772_r7676_p2666
mc15_13TeV.363432.Sherpa_NNPDF30NNLO_Znunu_Pt1000_2000_BFilter.merge.DAOD_SUSY1.e4772_s2726_r7772_r7676_p2666
mc15_13TeV.363433.Sherpa_NNPDF30NNLO_Znunu_Pt2000_E_CMS_CVetoBVeto.merge.DAOD_SUSY1.e4716_s2726_r7772_r7676_p2666
mc15_13TeV.363434.Sherpa_NNPDF30NNLO_Znunu_Pt2000_E_CMS_CFilterBVeto.merge.DAOD_SUSY1.e4716_s2726_r7772_r7676_p2666
mc15_13TeV.363435.Sherpa_NNPDF30NNLO_Znunu_Pt2000_E_CMS_BFilter.merge.DAOD_SUSY1.e4772_s2726_r7772_r7676_p2666




#W+jets new slicing
mc15_13TeV.364156.Sherpa_221_NNPDF30NNLO_Wmunu_MAXHTPTV0_70_CVetoBVeto.merge.DAOD_SUSY1.e5340_s2726_r7772_r7676_p2823/
mc15_13TeV.364157.Sherpa_221_NNPDF30NNLO_Wmunu_MAXHTPTV0_70_CFilterBVeto.merge.DAOD_SUSY1.e5340_s2726_r7772_r7676_p2823/
mc15_13TeV.364158.Sherpa_221_NNPDF30NNLO_Wmunu_MAXHTPTV0_70_BFilter.merge.DAOD_SUSY1.e5340_s2726_r7772_r7676_p2823/
mc15_13TeV.364159.Sherpa_221_NNPDF30NNLO_Wmunu_MAXHTPTV70_140_CVetoBVeto.merge.DAOD_SUSY1.e5340_s2726_r7772_r7676_p2823/
mc15_13TeV.364160.Sherpa_221_NNPDF30NNLO_Wmunu_MAXHTPTV70_140_CFilterBVeto.merge.DAOD_SUSY1.e5340_s2726_r7772_r7676_p2823/
mc15_13TeV.364161.Sherpa_221_NNPDF30NNLO_Wmunu_MAXHTPTV70_140_BFilter.merge.DAOD_SUSY1.e5340_s2726_r7772_r7676_p2823/
mc15_13TeV.364162.Sherpa_221_NNPDF30NNLO_Wmunu_MAXHTPTV140_280_CVetoBVeto.merge.DAOD_SUSY1.e5340_s2726_r7772_r7676_p2823/
mc15_13TeV.364163.Sherpa_221_NNPDF30NNLO_Wmunu_MAXHTPTV140_280_CFilterBVeto.merge.DAOD_SUSY1.e5340_s2726_r7772_r7676_p2823/
mc15_13TeV.364164.Sherpa_221_NNPDF30NNLO_Wmunu_MAXHTPTV140_280_BFilter.merge.DAOD_SUSY1.e5340_s2726_r7772_r7676_p2823/
mc15_13TeV.364165.Sherpa_221_NNPDF30NNLO_Wmunu_MAXHTPTV280_500_CVetoBVeto.merge.DAOD_SUSY1.e5340_s2726_r7772_r7676_p2823/
mc15_13TeV.364166.Sherpa_221_NNPDF30NNLO_Wmunu_MAXHTPTV280_500_CFilterBVeto.merge.DAOD_SUSY1.e5340_s2726_r7772_r7676_p2823/
mc15_13TeV.364167.Sherpa_221_NNPDF30NNLO_Wmunu_MAXHTPTV280_500_BFilter.merge.DAOD_SUSY1.e5340_s2726_r7772_r7676_p2823/
mc15_13TeV.364168.Sherpa_221_NNPDF30NNLO_Wmunu_MAXHTPTV500_1000.merge.DAOD_SUSY1.e5340_s2726_r7772_r7676_p2823/
mc15_13TeV.364169.Sherpa_221_NNPDF30NNLO_Wmunu_MAXHTPTV1000_E_CMS.merge.DAOD_SUSY1.e5340_s2726_r7772_r7676_p2823/
mc15_13TeV.364170.Sherpa_221_NNPDF30NNLO_Wenu_MAXHTPTV0_70_CVetoBVeto.merge.DAOD_SUSY1.e5340_s2726_r7772_r7676_p2823/
mc15_13TeV.364171.Sherpa_221_NNPDF30NNLO_Wenu_MAXHTPTV0_70_CFilterBVeto.merge.DAOD_SUSY1.e5340_s2726_r7772_r7676_p2823/
mc15_13TeV.364172.Sherpa_221_NNPDF30NNLO_Wenu_MAXHTPTV0_70_BFilter.merge.DAOD_SUSY1.e5340_s2726_r7772_r7676_p2823/
mc15_13TeV.364173.Sherpa_221_NNPDF30NNLO_Wenu_MAXHTPTV70_140_CVetoBVeto.merge.DAOD_SUSY1.e5340_s2726_r7772_r7676_p2823/
mc15_13TeV.364174.Sherpa_221_NNPDF30NNLO_Wenu_MAXHTPTV70_140_CFilterBVeto.merge.DAOD_SUSY1.e5340_s2726_r7772_r7676_p2823/
mc15_13TeV.364175.Sherpa_221_NNPDF30NNLO_Wenu_MAXHTPTV70_140_BFilter.merge.DAOD_SUSY1.e5340_s2726_r7772_r7676_p2823/
mc15_13TeV.364176.Sherpa_221_NNPDF30NNLO_Wenu_MAXHTPTV140_280_CVetoBVeto.merge.DAOD_SUSY1.e5340_s2726_r7772_r7676_p2823/
mc15_13TeV.364177.Sherpa_221_NNPDF30NNLO_Wenu_MAXHTPTV140_280_CFilterBVeto.merge.DAOD_SUSY1.e5340_s2726_r7772_r7676_p2823/
mc15_13TeV.364178.Sherpa_221_NNPDF30NNLO_Wenu_MAXHTPTV140_280_BFilter.merge.DAOD_SUSY1.e5340_s2726_r7772_r7676_p2823/
mc15_13TeV.364179.Sherpa_221_NNPDF30NNLO_Wenu_MAXHTPTV280_500_CVetoBVeto.merge.DAOD_SUSY1.e5340_s2726_r7772_r7676_p2823/
mc15_13TeV.364180.Sherpa_221_NNPDF30NNLO_Wenu_MAXHTPTV280_500_CFilterBVeto.merge.DAOD_SUSY1.e5340_s2726_r7772_r7676_p2823/
mc15_13TeV.364181.Sherpa_221_NNPDF30NNLO_Wenu_MAXHTPTV280_500_BFilter.merge.DAOD_SUSY1.e5340_s2726_r7772_r7676_p2823/
mc15_13TeV.364182.Sherpa_221_NNPDF30NNLO_Wenu_MAXHTPTV500_1000.merge.DAOD_SUSY1.e5340_s2726_r7772_r7676_p2823/
mc15_13TeV.364183.Sherpa_221_NNPDF30NNLO_Wenu_MAXHTPTV1000_E_CMS.merge.DAOD_SUSY1.e5340_s2726_r7772_r7676_p2823/
mc15_13TeV.364184.Sherpa_221_NNPDF30NNLO_Wtaunu_MAXHTPTV0_70_CVetoBVeto.merge.DAOD_SUSY1.e5340_s2726_r7772_r7676_p2823/
mc15_13TeV.364185.Sherpa_221_NNPDF30NNLO_Wtaunu_MAXHTPTV0_70_CFilterBVeto.merge.DAOD_SUSY1.e5340_s2726_r7772_r7676_p2823/
mc15_13TeV.364186.Sherpa_221_NNPDF30NNLO_Wtaunu_MAXHTPTV0_70_BFilter.merge.DAOD_SUSY1.e5340_s2726_r7772_r7676_p2823/
mc15_13TeV.364187.Sherpa_221_NNPDF30NNLO_Wtaunu_MAXHTPTV70_140_CVetoBVeto.merge.DAOD_SUSY1.e5340_s2726_r7772_r7676_p2823/
mc15_13TeV.364188.Sherpa_221_NNPDF30NNLO_Wtaunu_MAXHTPTV70_140_CFilterBVeto.merge.DAOD_SUSY1.e5340_s2726_r7772_r7676_p2823/
mc15_13TeV.364189.Sherpa_221_NNPDF30NNLO_Wtaunu_MAXHTPTV70_140_BFilter.merge.DAOD_SUSY1.e5340_s2726_r7772_r7676_p2823/
mc15_13TeV.364190.Sherpa_221_NNPDF30NNLO_Wtaunu_MAXHTPTV140_280_CVetoBVeto.merge.DAOD_SUSY1.e5340_s2726_r7772_r7676_p2823/
mc15_13TeV.364191.Sherpa_221_NNPDF30NNLO_Wtaunu_MAXHTPTV140_280_CFilterBVeto.merge.DAOD_SUSY1.e5340_s2726_r7772_r7676_p2823/
mc15_13TeV.364192.Sherpa_221_NNPDF30NNLO_Wtaunu_MAXHTPTV140_280_BFilter.merge.DAOD_SUSY1.e5340_s2726_r7772_r7676_p2823/
mc15_13TeV.364193.Sherpa_221_NNPDF30NNLO_Wtaunu_MAXHTPTV280_500_CVetoBVeto.merge.DAOD_SUSY1.e5340_s2726_r7772_r7676_p2823/
mc15_13TeV.364194.Sherpa_221_NNPDF30NNLO_Wtaunu_MAXHTPTV280_500_CFilterBVeto.merge.DAOD_SUSY1.e5340_s2726_r7772_r7676_p2823/
mc15_13TeV.364195.Sherpa_221_NNPDF30NNLO_Wtaunu_MAXHTPTV280_500_BFilter.merge.DAOD_SUSY1.e5340_s2726_r7772_r7676_p2823/
mc15_13TeV.364196.Sherpa_221_NNPDF30NNLO_Wtaunu_MAXHTPTV500_1000.merge.DAOD_SUSY1.e5340_s2726_r7772_r7676_p2823/
mc15_13TeV.364197.Sherpa_221_NNPDF30NNLO_Wtaunu_MAXHTPTV1000_E_CMS.merge.DAOD_SUSY1.e5340_s2726_r7772_r7676_p2823/




# Z+jets new slicing
mc15_13TeV.364100.Sherpa_221_NNPDF30NNLO_Zmumu_MAXHTPTV0_70_CVetoBVeto.merge.DAOD_SUSY1.e5271_s2726_r7772_r7676_p2823/
mc15_13TeV.364101.Sherpa_221_NNPDF30NNLO_Zmumu_MAXHTPTV0_70_CFilterBVeto.merge.DAOD_SUSY1.e5271_s2726_r7772_r7676_p2823/
mc15_13TeV.364102.Sherpa_221_NNPDF30NNLO_Zmumu_MAXHTPTV0_70_BFilter.merge.DAOD_SUSY1.e5271_s2726_r7772_r7676_p2823/
mc15_13TeV.364103.Sherpa_221_NNPDF30NNLO_Zmumu_MAXHTPTV70_140_CVetoBVeto.merge.DAOD_SUSY1.e5271_s2726_r7772_r7676_p2823/
mc15_13TeV.364104.Sherpa_221_NNPDF30NNLO_Zmumu_MAXHTPTV70_140_CFilterBVeto.merge.DAOD_SUSY1.e5271_s2726_r7772_r7676_p2823/
mc15_13TeV.364105.Sherpa_221_NNPDF30NNLO_Zmumu_MAXHTPTV70_140_BFilter.merge.DAOD_SUSY1.e5271_s2726_r7772_r7676_p2823/
mc15_13TeV.364106.Sherpa_221_NNPDF30NNLO_Zmumu_MAXHTPTV140_280_CVetoBVeto.merge.DAOD_SUSY1.e5271_s2726_r7772_r7676_p2823/
mc15_13TeV.364107.Sherpa_221_NNPDF30NNLO_Zmumu_MAXHTPTV140_280_CFilterBVeto.merge.DAOD_SUSY1.e5271_s2726_r7772_r7676_p2823/
mc15_13TeV.364108.Sherpa_221_NNPDF30NNLO_Zmumu_MAXHTPTV140_280_BFilter.merge.DAOD_SUSY1.e5271_s2726_r7772_r7676_p2823/
mc15_13TeV.364109.Sherpa_221_NNPDF30NNLO_Zmumu_MAXHTPTV280_500_CVetoBVeto.merge.DAOD_SUSY1.e5271_s2726_r7772_r7676_p2823/
mc15_13TeV.364110.Sherpa_221_NNPDF30NNLO_Zmumu_MAXHTPTV280_500_CFilterBVeto.merge.DAOD_SUSY1.e5271_s2726_r7772_r7676_p2823/
mc15_13TeV.364111.Sherpa_221_NNPDF30NNLO_Zmumu_MAXHTPTV280_500_BFilter.merge.DAOD_SUSY1.e5271_s2726_r7772_r7676_p2823/
mc15_13TeV.364112.Sherpa_221_NNPDF30NNLO_Zmumu_MAXHTPTV500_1000.merge.DAOD_SUSY1.e5271_s2726_r7772_r7676_p2823/
mc15_13TeV.364113.Sherpa_221_NNPDF30NNLO_Zmumu_MAXHTPTV1000_E_CMS.merge.DAOD_SUSY1.e5271_s2726_r7772_r7676_p2823/
mc15_13TeV.364114.Sherpa_221_NNPDF30NNLO_Zee_MAXHTPTV0_70_CVetoBVeto.merge.DAOD_SUSY1.e5299_s2726_r7772_r7676_p2823/
mc15_13TeV.364115.Sherpa_221_NNPDF30NNLO_Zee_MAXHTPTV0_70_CFilterBVeto.merge.DAOD_SUSY1.e5299_s2726_r7772_r7676_p2823/
mc15_13TeV.364116.Sherpa_221_NNPDF30NNLO_Zee_MAXHTPTV0_70_BFilter.merge.DAOD_SUSY1.e5299_s2726_r7772_r7676_p2823/
mc15_13TeV.364117.Sherpa_221_NNPDF30NNLO_Zee_MAXHTPTV70_140_CVetoBVeto.merge.DAOD_SUSY1.e5299_s2726_r7772_r7676_p2823/
mc15_13TeV.364118.Sherpa_221_NNPDF30NNLO_Zee_MAXHTPTV70_140_CFilterBVeto.merge.DAOD_SUSY1.e5299_s2726_r7772_r7676_p2823/
mc15_13TeV.364119.Sherpa_221_NNPDF30NNLO_Zee_MAXHTPTV70_140_BFilter.merge.DAOD_SUSY1.e5299_s2726_r7772_r7676_p2823/
mc15_13TeV.364120.Sherpa_221_NNPDF30NNLO_Zee_MAXHTPTV140_280_CVetoBVeto.merge.DAOD_SUSY1.e5299_s2726_r7772_r7676_p2823/
mc15_13TeV.364121.Sherpa_221_NNPDF30NNLO_Zee_MAXHTPTV140_280_CFilterBVeto.merge.DAOD_SUSY1.e5299_s2726_r7772_r7676_p2823/
mc15_13TeV.364122.Sherpa_221_NNPDF30NNLO_Zee_MAXHTPTV140_280_BFilter.merge.DAOD_SUSY1.e5299_s2726_r7772_r7676_p2823/
mc15_13TeV.364123.Sherpa_221_NNPDF30NNLO_Zee_MAXHTPTV280_500_CVetoBVeto.merge.DAOD_SUSY1.e5299_s2726_r7772_r7676_p2823/
mc15_13TeV.364124.Sherpa_221_NNPDF30NNLO_Zee_MAXHTPTV280_500_CFilterBVeto.merge.DAOD_SUSY1.e5299_s2726_r7772_r7676_p2823/
mc15_13TeV.364125.Sherpa_221_NNPDF30NNLO_Zee_MAXHTPTV280_500_BFilter.merge.DAOD_SUSY1.e5299_s2726_r7772_r7676_p2823/
mc15_13TeV.364126.Sherpa_221_NNPDF30NNLO_Zee_MAXHTPTV500_1000.merge.DAOD_SUSY1.e5299_s2726_r7772_r7676_p2823/
mc15_13TeV.364127.Sherpa_221_NNPDF30NNLO_Zee_MAXHTPTV1000_E_CMS.merge.DAOD_SUSY1.e5299_s2726_r7772_r7676_p2823/
mc15_13TeV.364128.Sherpa_221_NNPDF30NNLO_Ztautau_MAXHTPTV0_70_CVetoBVeto.merge.DAOD_SUSY1.e5307_s2726_r7772_r7676_p2823/
mc15_13TeV.364129.Sherpa_221_NNPDF30NNLO_Ztautau_MAXHTPTV0_70_CFilterBVeto.merge.DAOD_SUSY1.e5307_s2726_r7772_r7676_p2823/
mc15_13TeV.364130.Sherpa_221_NNPDF30NNLO_Ztautau_MAXHTPTV0_70_BFilter.merge.DAOD_SUSY1.e5307_s2726_r7772_r7676_p2823/
mc15_13TeV.364131.Sherpa_221_NNPDF30NNLO_Ztautau_MAXHTPTV70_140_CVetoBVeto.merge.DAOD_SUSY1.e5307_s2726_r7772_r7676_p2823/
mc15_13TeV.364132.Sherpa_221_NNPDF30NNLO_Ztautau_MAXHTPTV70_140_CFilterBVeto.merge.DAOD_SUSY1.e5307_s2726_r7772_r7676_p2823/
mc15_13TeV.364133.Sherpa_221_NNPDF30NNLO_Ztautau_MAXHTPTV70_140_BFilter.merge.DAOD_SUSY1.e5307_s2726_r7772_r7676_p2823/
mc15_13TeV.364134.Sherpa_221_NNPDF30NNLO_Ztautau_MAXHTPTV140_280_CVetoBVeto.merge.DAOD_SUSY1.e5307_s2726_r7772_r7676_p2823/
mc15_13TeV.364135.Sherpa_221_NNPDF30NNLO_Ztautau_MAXHTPTV140_280_CFilterBVeto.merge.DAOD_SUSY1.e5307_s2726_r7772_r7676_p2823/
mc15_13TeV.364136.Sherpa_221_NNPDF30NNLO_Ztautau_MAXHTPTV140_280_BFilter.merge.DAOD_SUSY1.e5307_s2726_r7772_r7676_p2823/
mc15_13TeV.364137.Sherpa_221_NNPDF30NNLO_Ztautau_MAXHTPTV280_500_CVetoBVeto.merge.DAOD_SUSY1.e5307_s2726_r7772_r7676_p2823/
mc15_13TeV.364138.Sherpa_221_NNPDF30NNLO_Ztautau_MAXHTPTV280_500_CFilterBVeto.merge.DAOD_SUSY1.e5313_s2726_r7772_r7676_p2823/
mc15_13TeV.364139.Sherpa_221_NNPDF30NNLO_Ztautau_MAXHTPTV280_500_BFilter.merge.DAOD_SUSY1.e5313_s2726_r7772_r7676_p2823/
mc15_13TeV.364140.Sherpa_221_NNPDF30NNLO_Ztautau_MAXHTPTV500_1000.merge.DAOD_SUSY1.e5307_s2726_r7772_r7676_p2823/
mc15_13TeV.364141.Sherpa_221_NNPDF30NNLO_Ztautau_MAXHTPTV1000_E_CMS.merge.DAOD_SUSY1.e5307_s2726_r7772_r7676_p2823/
mc15_13TeV.364142.Sherpa_221_NNPDF30NNLO_Znunu_MAXHTPTV0_70_CVetoBVeto.merge.DAOD_SUSY1.e5308_s2726_r7772_r7676_p2823/
mc15_13TeV.364143.Sherpa_221_NNPDF30NNLO_Znunu_MAXHTPTV0_70_CFilterBVeto.merge.DAOD_SUSY1.e5308_s2726_r7772_r7676_p2823/
mc15_13TeV.364144.Sherpa_221_NNPDF30NNLO_Znunu_MAXHTPTV0_70_BFilter.merge.DAOD_SUSY1.e5308_s2726_r7772_r7676_p2823/
mc15_13TeV.364145.Sherpa_221_NNPDF30NNLO_Znunu_MAXHTPTV70_140_CVetoBVeto.merge.DAOD_SUSY1.e5308_s2726_r7772_r7676_p2823/
mc15_13TeV.364146.Sherpa_221_NNPDF30NNLO_Znunu_MAXHTPTV70_140_CFilterBVeto.merge.DAOD_SUSY1.e5308_s2726_r7772_r7676_p2823/
mc15_13TeV.364147.Sherpa_221_NNPDF30NNLO_Znunu_MAXHTPTV70_140_BFilter.merge.DAOD_SUSY1.e5308_s2726_r7772_r7676_p2823/
mc15_13TeV.364148.Sherpa_221_NNPDF30NNLO_Znunu_MAXHTPTV140_280_CVetoBVeto.merge.DAOD_SUSY1.e5308_s2726_r7772_r7676_p2823/
mc15_13TeV.364149.Sherpa_221_NNPDF30NNLO_Znunu_MAXHTPTV140_280_CFilterBVeto.merge.DAOD_SUSY1.e5308_s2726_r7772_r7676_p2823/
mc15_13TeV.364150.Sherpa_221_NNPDF30NNLO_Znunu_MAXHTPTV140_280_BFilter.merge.DAOD_SUSY1.e5308_s2726_r7772_r7676_p2823/
mc15_13TeV.364151.Sherpa_221_NNPDF30NNLO_Znunu_MAXHTPTV280_500_CVetoBVeto.merge.DAOD_SUSY1.e5308_s2726_r7772_r7676_p2823/
mc15_13TeV.364152.Sherpa_221_NNPDF30NNLO_Znunu_MAXHTPTV280_500_CFilterBVeto.merge.DAOD_SUSY1.e5308_s2726_r7772_r7676_p2823/
mc15_13TeV.364153.Sherpa_221_NNPDF30NNLO_Znunu_MAXHTPTV280_500_BFilter.merge.DAOD_SUSY1.e5308_s2726_r7772_r7676_p2823/
mc15_13TeV.364154.Sherpa_221_NNPDF30NNLO_Znunu_MAXHTPTV500_1000.merge.DAOD_SUSY1.e5308_s2726_r7772_r7676_p2823/
mc15_13TeV.364155.Sherpa_221_NNPDF30NNLO_Znunu_MAXHTPTV1000_E_CMS.merge.DAOD_SUSY1.e5308_s2726_r7772_r7676_p2823/
