# use dset_list.py for all your dset listing needs
# mc15_13TeV.361063.Sherpa_CT10_llll missing! No version with tag p2613 found
# mc15_13TeV.361064.Sherpa_CT10_lllvSFMinus missing! No version with tag p2613 found
# mc15_13TeV.361065.Sherpa_CT10_lllvOFMinus missing! No version with tag p2613 found
# mc15_13TeV.361066.Sherpa_CT10_lllvSFPlus missing! No version with tag p2613 found
# mc15_13TeV.361067.Sherpa_CT10_lllvOFPlus missing! No version with tag p2613 found
# mc15_13TeV.361068.Sherpa_CT10_llvv missing! No version with tag p2613 found
# mc15_13TeV.361069.Sherpa_CT10_llvvjj_ss_EW4 missing! No version with tag p2613 found
# mc15_13TeV.361070.Sherpa_CT10_llvvjj_ss_EW6 missing! No version with tag p2613 found
mc15_13TeV.361071.Sherpa_CT10_lllvjj_EW6.merge.DAOD_EXOT5.e3836_s2608_s2183_r7772_r7676_p2613/
mc15_13TeV.361072.Sherpa_CT10_lllljj_EW6.merge.DAOD_EXOT5.e3836_s2608_s2183_r7772_r7676_p2613/
mc15_13TeV.361073.Sherpa_CT10_ggllll.merge.DAOD_EXOT5.e3836_s2608_s2183_r7772_r7676_p2613/
mc15_13TeV.361077.Sherpa_CT10_ggllvv.merge.DAOD_EXOT5.e3836_s2608_s2183_r7772_r7676_p2613/
mc15_13TeV.361081.Sherpa_CT10_WplvWmqq.merge.DAOD_EXOT5.e3836_s2608_s2183_r7772_r7676_p2613/
mc15_13TeV.361082.Sherpa_CT10_WpqqWmlv.merge.DAOD_EXOT5.e3836_s2608_s2183_r7772_r7676_p2613/
mc15_13TeV.361083.Sherpa_CT10_WlvZqq.merge.DAOD_EXOT5.e3836_s2608_s2183_r7772_r7676_p2613/
mc15_13TeV.361084.Sherpa_CT10_WqqZll.merge.DAOD_EXOT5.e3836_s2608_s2183_r7772_r7676_p2613/
mc15_13TeV.361085.Sherpa_CT10_WqqZvv.merge.DAOD_EXOT5.e3836_s2608_s2183_r7772_r7676_p2613/
mc15_13TeV.361086.Sherpa_CT10_ZqqZll.merge.DAOD_EXOT5.e3926_s2608_s2183_r7772_r7676_p2613/
mc15_13TeV.361087.Sherpa_CT10_ZqqZvv.merge.DAOD_EXOT5.e3926_s2608_s2183_r7772_r7676_p2613/
mc15_13TeV.361088.Sherpa_CT10_lvvv.merge.DAOD_EXOT5.e4483_s2726_r7772_r7676_p2613/
mc15_13TeV.361089.Sherpa_CT10_vvvv.merge.DAOD_EXOT5.e4483_s2726_r7772_r7676_p2613/
mc15_13TeV.361468.Sherpa_CT10_Zee_Mll10to40_Pt0_70_BVeto.merge.DAOD_EXOT5.e4198_s2608_s2183_r7772_r7676_p2613/
mc15_13TeV.361469.Sherpa_CT10_Zee_Mll10to40_Pt0_70_BFilter.merge.DAOD_EXOT5.e4198_s2608_s2183_r7772_r7676_p2613/
mc15_13TeV.361470.Sherpa_CT10_Zee_Mll10to40_Pt70_140_BVeto.merge.DAOD_EXOT5.e4198_s2608_s2183_r7772_r7676_p2613/
mc15_13TeV.361471.Sherpa_CT10_Zee_Mll10to40_Pt70_140_BFilter.merge.DAOD_EXOT5.e4198_s2608_s2183_r7772_r7676_p2613/
mc15_13TeV.361472.Sherpa_CT10_Zee_Mll10to40_Pt140_400_BVeto.merge.DAOD_EXOT5.e4198_s2608_s2183_r7772_r7676_p2613/
mc15_13TeV.361473.Sherpa_CT10_Zee_Mll10to40_Pt140_400_BFilter.merge.DAOD_EXOT5.e4198_s2608_s2183_r7772_r7676_p2613/
mc15_13TeV.361474.Sherpa_CT10_Zee_Mll10to40_Pt400_E_CMS_BVeto.merge.DAOD_EXOT5.e4198_s2608_s2183_r7772_r7676_p2613/
mc15_13TeV.361475.Sherpa_CT10_Zee_Mll10to40_Pt400_E_CMS_BFilter.merge.DAOD_EXOT5.e4198_s2608_s2183_r7772_r7676_p2613/
mc15_13TeV.361476.Sherpa_CT10_Zmumu_Mll10to40_Pt0_70_BVeto.merge.DAOD_EXOT5.e4198_s2608_s2183_r7772_r7676_p2613/
mc15_13TeV.361477.Sherpa_CT10_Zmumu_Mll10to40_Pt0_70_BFilter.merge.DAOD_EXOT5.e4198_s2608_s2183_r7772_r7676_p2613/
mc15_13TeV.361478.Sherpa_CT10_Zmumu_Mll10to40_Pt70_140_BVeto.merge.DAOD_EXOT5.e4198_s2608_s2183_r7772_r7676_p2613/
mc15_13TeV.361479.Sherpa_CT10_Zmumu_Mll10to40_Pt70_140_BFilter.merge.DAOD_EXOT5.e4198_s2608_s2183_r7772_r7676_p2613/
mc15_13TeV.361480.Sherpa_CT10_Zmumu_Mll10to40_Pt140_400_BVeto.merge.DAOD_EXOT5.e4198_s2608_s2183_r7772_r7676_p2613/
mc15_13TeV.361481.Sherpa_CT10_Zmumu_Mll10to40_Pt140_400_BFilter.merge.DAOD_EXOT5.e4198_s2608_s2183_r7772_r7676_p2613/
mc15_13TeV.361482.Sherpa_CT10_Zmumu_Mll10to40_Pt400_E_CMS_BVeto.merge.DAOD_EXOT5.e4198_s2608_s2183_r7772_r7676_p2613/
mc15_13TeV.361483.Sherpa_CT10_Zmumu_Mll10to40_Pt400_E_CMS_BFilter.merge.DAOD_EXOT5.e4198_s2608_s2183_r7772_r7676_p2613/
mc15_13TeV.361484.Sherpa_CT10_Ztautau_Mll10to40_Pt0_70_BVeto.merge.DAOD_EXOT5.e4198_s2608_s2183_r7772_r7676_p2613/
mc15_13TeV.361485.Sherpa_CT10_Ztautau_Mll10to40_Pt0_70_BFilter.merge.DAOD_EXOT5.e4198_s2608_s2183_r7772_r7676_p2613/
mc15_13TeV.361486.Sherpa_CT10_Ztautau_Mll10to40_Pt70_140_BVeto.merge.DAOD_EXOT5.e4198_s2608_s2183_r7772_r7676_p2613/
mc15_13TeV.361487.Sherpa_CT10_Ztautau_Mll10to40_Pt70_140_BFilter.merge.DAOD_EXOT5.e4198_s2608_s2183_r7772_r7676_p2613/
mc15_13TeV.361488.Sherpa_CT10_Ztautau_Mll10to40_Pt140_400_BVeto.merge.DAOD_EXOT5.e4198_s2608_s2183_r7772_r7676_p2613/
mc15_13TeV.361489.Sherpa_CT10_Ztautau_Mll10to40_Pt140_400_BFilter.merge.DAOD_EXOT5.e4198_s2608_s2183_r7772_r7676_p2613/
mc15_13TeV.361490.Sherpa_CT10_Ztautau_Mll10to40_Pt400_E_CMS_BVeto.merge.DAOD_EXOT5.e4198_s2608_s2183_r7772_r7676_p2613/
mc15_13TeV.361491.Sherpa_CT10_Ztautau_Mll10to40_Pt400_E_CMS_BFilter.merge.DAOD_EXOT5.e4198_s2608_s2183_r7772_r7676_p2613/
# mc15_13TeV.361600.PowhegPy8EG_CT10nloME_AZNLOCTEQ6L1_WWlvlv missing! No version with tag p2613 found
# mc15_13TeV.361601.PowhegPy8EG_CT10nloME_AZNLOCTEQ6L1_WZlvll_mll4 missing! No version with tag p2613 found
# mc15_13TeV.361602.PowhegPy8EG_CT10nloME_AZNLOCTEQ6L1_WZlvvv_mll4 missing! No version with tag p2613 found
# mc15_13TeV.361603.PowhegPy8EG_CT10nloME_AZNLOCTEQ6L1_ZZllll_mll4 missing! No version with tag p2613 found
# mc15_13TeV.361604.PowhegPy8EG_CT10nloME_AZNLOCTEQ6L1_ZZvvll_mll4 missing! No version with tag p2613 found
mc15_13TeV.361605.PowhegPy8EG_CT10nloME_AZNLOCTEQ6L1_ZZvvvv_mll4.merge.DAOD_EXOT5.e4054_s2608_s2183_r7772_r7676_p2613/
# mc15_13TeV.361606.PowhegPy8EG_CT10nloME_AZNLOCTEQ6L1_WWlvqq missing! No version with tag p2613 found
# mc15_13TeV.361607.PowhegPy8EG_CT10nloME_AZNLOCTEQ6L1_WZqqll_mll20 missing! No version with tag p2613 found
mc15_13TeV.361608.PowhegPy8EG_CT10nloME_AZNLOCTEQ6L1_WZqqvv.merge.DAOD_EXOT5.e4711_s2726_r7772_r7676_p2613/
# mc15_13TeV.361609.PowhegPy8EG_CT10nloME_AZNLOCTEQ6L1_WZlvqq_mqq20 missing! No version with tag p2613 found
# mc15_13TeV.361610.PowhegPy8EG_CT10nloME_AZNLOCTEQ6L1_ZZqqll_mqq20mll20 missing! No version with tag p2613 found
mc15_13TeV.361611.PowhegPy8EG_CT10nloME_AZNLOCTEQ6L1_ZZvvqq_mqq20.merge.DAOD_EXOT5.e4711_s2726_r7772_r7676_p2613/
mc15_13TeV.361300.Sherpa_CT10_Wenu_Pt0_70_CVetoBVeto.merge.DAOD_EXOT5.e3651_s2608_s2183_r7725_r7676_p2613/
# mc15_13TeV.361301.Sherpa_CT10_Wenu_Pt0_70_CFilterBVeto missing! No version with tag p2613 found
# mc15_13TeV.361302.Sherpa_CT10_Wenu_Pt0_70_BFilter missing! No version with tag p2613 found
# mc15_13TeV.361303.Sherpa_CT10_Wenu_Pt70_140_CVetoBVeto missing! No version with tag p2613 found
# mc15_13TeV.361304.Sherpa_CT10_Wenu_Pt70_140_CFilterBVeto missing! No version with tag p2613 found
# mc15_13TeV.361305.Sherpa_CT10_Wenu_Pt70_140_BFilter missing! No version with tag p2613 found
# mc15_13TeV.361306.Sherpa_CT10_Wenu_Pt140_280_CVetoBVeto missing! No version with tag p2613 found
# mc15_13TeV.361307.Sherpa_CT10_Wenu_Pt140_280_CFilterBVeto missing! No version with tag p2613 found
# mc15_13TeV.361308.Sherpa_CT10_Wenu_Pt140_280_BFilter missing! No version with tag p2613 found
mc15_13TeV.361309.Sherpa_CT10_Wenu_Pt280_500_CVetoBVeto.merge.DAOD_EXOT5.e4133_s2608_s2183_r7725_r7676_p2613/
mc15_13TeV.361310.Sherpa_CT10_Wenu_Pt280_500_CFilterBVeto.merge.DAOD_EXOT5.e3741_s2608_s2183_r7725_r7676_p2613/
mc15_13TeV.361311.Sherpa_CT10_Wenu_Pt280_500_BFilter.merge.DAOD_EXOT5.e3741_s2608_s2183_r7725_r7676_p2613/
mc15_13TeV.361312.Sherpa_CT10_Wenu_Pt500_700_CVetoBVeto.merge.DAOD_EXOT5.e3741_s2608_s2183_r7725_r7676_p2613/
mc15_13TeV.361313.Sherpa_CT10_Wenu_Pt500_700_CFilterBVeto.merge.DAOD_EXOT5.e3741_s2608_s2183_r7725_r7676_p2613/
mc15_13TeV.361314.Sherpa_CT10_Wenu_Pt500_700_BFilter.merge.DAOD_EXOT5.e3741_s2608_s2183_r7725_r7676_p2613/
mc15_13TeV.361315.Sherpa_CT10_Wenu_Pt700_1000_CVetoBVeto.merge.DAOD_EXOT5.e3741_s2608_s2183_r7725_r7676_p2613/
mc15_13TeV.361316.Sherpa_CT10_Wenu_Pt700_1000_CFilterBVeto.merge.DAOD_EXOT5.e3741_s2608_s2183_r7725_r7676_p2613/
mc15_13TeV.361317.Sherpa_CT10_Wenu_Pt700_1000_BFilter.merge.DAOD_EXOT5.e3741_s2608_s2183_r7725_r7676_p2613/
mc15_13TeV.361318.Sherpa_CT10_Wenu_Pt1000_2000_CVetoBVeto.merge.DAOD_EXOT5.e3741_s2608_s2183_r7725_r7676_p2613/
mc15_13TeV.361319.Sherpa_CT10_Wenu_Pt1000_2000_CFilterBVeto.merge.DAOD_EXOT5.e4133_s2608_s2183_r7725_r7676_p2613/
mc15_13TeV.361320.Sherpa_CT10_Wenu_Pt1000_2000_BFilter.merge.DAOD_EXOT5.e4133_s2608_s2183_r7725_r7676_p2613/
mc15_13TeV.361321.Sherpa_CT10_Wenu_Pt2000_E_CMS_CVetoBVeto.merge.DAOD_EXOT5.e4133_s2608_s2183_r7725_r7676_p2613/
mc15_13TeV.361322.Sherpa_CT10_Wenu_Pt2000_E_CMS_CFilterBVeto.merge.DAOD_EXOT5.e4133_s2608_s2183_r7725_r7676_p2613/
mc15_13TeV.361323.Sherpa_CT10_Wenu_Pt2000_E_CMS_BFilter.merge.DAOD_EXOT5.e4133_s2608_s2183_r7725_r7676_p2613/
mc15_13TeV.361324.Sherpa_CT10_Wmunu_Pt0_70_CVetoBVeto.merge.DAOD_EXOT5.e3651_s2608_s2183_r7725_r7676_p2613/
# mc15_13TeV.361325.Sherpa_CT10_Wmunu_Pt0_70_CFilterBVeto missing! No version with tag p2613 found
# mc15_13TeV.361326.Sherpa_CT10_Wmunu_Pt0_70_BFilter missing! No version with tag p2613 found
# mc15_13TeV.361327.Sherpa_CT10_Wmunu_Pt70_140_CVetoBVeto missing! No version with tag p2613 found
# mc15_13TeV.361328.Sherpa_CT10_Wmunu_Pt70_140_CFilterBVeto missing! No version with tag p2613 found
# mc15_13TeV.361329.Sherpa_CT10_Wmunu_Pt70_140_BFilter missing! No version with tag p2613 found
# mc15_13TeV.361330.Sherpa_CT10_Wmunu_Pt140_280_CVetoBVeto missing! No version with tag p2613 found
# mc15_13TeV.361331.Sherpa_CT10_Wmunu_Pt140_280_CFilterBVeto missing! No version with tag p2613 found
# mc15_13TeV.361332.Sherpa_CT10_Wmunu_Pt140_280_BFilter missing! No version with tag p2613 found
mc15_13TeV.361333.Sherpa_CT10_Wmunu_Pt280_500_CVetoBVeto.merge.DAOD_EXOT5.e4133_s2608_s2183_r7725_r7676_p2613/
mc15_13TeV.361334.Sherpa_CT10_Wmunu_Pt280_500_CFilterBVeto.merge.DAOD_EXOT5.e4133_s2608_s2183_r7725_r7676_p2613/
mc15_13TeV.361335.Sherpa_CT10_Wmunu_Pt280_500_BFilter.merge.DAOD_EXOT5.e3741_s2608_s2183_r7725_r7676_p2613/
mc15_13TeV.361336.Sherpa_CT10_Wmunu_Pt500_700_CVetoBVeto.merge.DAOD_EXOT5.e4133_s2608_s2183_r7725_r7676_p2613/
mc15_13TeV.361337.Sherpa_CT10_Wmunu_Pt500_700_CFilterBVeto.merge.DAOD_EXOT5.e4133_s2608_s2183_r7725_r7676_p2613/
mc15_13TeV.361338.Sherpa_CT10_Wmunu_Pt500_700_BFilter.merge.DAOD_EXOT5.e4133_s2608_s2183_r7725_r7676_p2613/
mc15_13TeV.361339.Sherpa_CT10_Wmunu_Pt700_1000_CVetoBVeto.merge.DAOD_EXOT5.e4133_s2608_s2183_r7725_r7676_p2613/
mc15_13TeV.361340.Sherpa_CT10_Wmunu_Pt700_1000_CFilterBVeto.merge.DAOD_EXOT5.e4133_s2608_s2183_r7725_r7676_p2613/
mc15_13TeV.361341.Sherpa_CT10_Wmunu_Pt700_1000_BFilter.merge.DAOD_EXOT5.e4133_s2608_s2183_r7725_r7676_p2613/
mc15_13TeV.361342.Sherpa_CT10_Wmunu_Pt1000_2000_CVetoBVeto.merge.DAOD_EXOT5.e4133_s2608_s2183_r7725_r7676_p2613/
mc15_13TeV.361343.Sherpa_CT10_Wmunu_Pt1000_2000_CFilterBVeto.merge.DAOD_EXOT5.e3741_s2608_s2183_r7725_r7676_p2613/
mc15_13TeV.361344.Sherpa_CT10_Wmunu_Pt1000_2000_BFilter.merge.DAOD_EXOT5.e4133_s2608_s2183_r7725_r7676_p2613/
mc15_13TeV.361345.Sherpa_CT10_Wmunu_Pt2000_E_CMS_CVetoBVeto.merge.DAOD_EXOT5.e4133_s2608_s2183_r7725_r7676_p2613/
mc15_13TeV.361346.Sherpa_CT10_Wmunu_Pt2000_E_CMS_CFilterBVeto.merge.DAOD_EXOT5.e4133_s2608_s2183_r7725_r7676_p2613/
mc15_13TeV.361347.Sherpa_CT10_Wmunu_Pt2000_E_CMS_BFilter.merge.DAOD_EXOT5.e4133_s2608_s2183_r7725_r7676_p2613/
mc15_13TeV.361348.Sherpa_CT10_Wtaunu_Pt0_70_CVetoBVeto.merge.DAOD_EXOT5.e3733_s2608_s2183_r7725_r7676_p2613/
mc15_13TeV.361349.Sherpa_CT10_Wtaunu_Pt0_70_CFilterBVeto.merge.DAOD_EXOT5.e3733_s2608_s2183_r7725_r7676_p2613/
mc15_13TeV.361350.Sherpa_CT10_Wtaunu_Pt0_70_BFilter.merge.DAOD_EXOT5.e3733_s2608_s2183_r7725_r7676_p2613/
mc15_13TeV.361351.Sherpa_CT10_Wtaunu_Pt70_140_CVetoBVeto.merge.DAOD_EXOT5.e3733_s2608_s2183_r7725_r7676_p2613/
mc15_13TeV.361352.Sherpa_CT10_Wtaunu_Pt70_140_CFilterBVeto.merge.DAOD_EXOT5.e3733_s2608_s2183_r7725_r7676_p2613/
mc15_13TeV.361353.Sherpa_CT10_Wtaunu_Pt70_140_BFilter.merge.DAOD_EXOT5.e3733_s2608_s2183_r7725_r7676_p2613/
mc15_13TeV.361354.Sherpa_CT10_Wtaunu_Pt140_280_CVetoBVeto.merge.DAOD_EXOT5.e3733_s2608_s2183_r7725_r7676_p2613/
mc15_13TeV.361355.Sherpa_CT10_Wtaunu_Pt140_280_CFilterBVeto.merge.DAOD_EXOT5.e3733_s2608_s2183_r7725_r7676_p2613/
mc15_13TeV.361356.Sherpa_CT10_Wtaunu_Pt140_280_BFilter.merge.DAOD_EXOT5.e3733_s2608_s2183_r7725_r7676_p2613/
mc15_13TeV.361357.Sherpa_CT10_Wtaunu_Pt280_500_CVetoBVeto.merge.DAOD_EXOT5.e3741_s2608_s2183_r7725_r7676_p2613/
mc15_13TeV.361358.Sherpa_CT10_Wtaunu_Pt280_500_CFilterBVeto.merge.DAOD_EXOT5.e3741_s2608_s2183_r7725_r7676_p2613/
mc15_13TeV.361359.Sherpa_CT10_Wtaunu_Pt280_500_BFilter.merge.DAOD_EXOT5.e3741_s2608_s2183_r7725_r7676_p2613/
mc15_13TeV.361360.Sherpa_CT10_Wtaunu_Pt500_700_CVetoBVeto.merge.DAOD_EXOT5.e3741_s2608_s2183_r7725_r7676_p2613/
mc15_13TeV.361361.Sherpa_CT10_Wtaunu_Pt500_700_CFilterBVeto.merge.DAOD_EXOT5.e3741_s2608_s2183_r7725_r7676_p2613/
mc15_13TeV.361362.Sherpa_CT10_Wtaunu_Pt500_700_BFilter.merge.DAOD_EXOT5.e3741_s2608_s2183_r7725_r7676_p2613/
mc15_13TeV.361363.Sherpa_CT10_Wtaunu_Pt700_1000_CVetoBVeto.merge.DAOD_EXOT5.e3973_s2608_s2183_r7725_r7676_p2613/
mc15_13TeV.361364.Sherpa_CT10_Wtaunu_Pt700_1000_CFilterBVeto.merge.DAOD_EXOT5.e3973_s2608_s2183_r7725_r7676_p2613/
mc15_13TeV.361365.Sherpa_CT10_Wtaunu_Pt700_1000_BFilter.merge.DAOD_EXOT5.e3973_s2608_s2183_r7725_r7676_p2613/
mc15_13TeV.361366.Sherpa_CT10_Wtaunu_Pt1000_2000_CVetoBVeto.merge.DAOD_EXOT5.e3741_s2608_s2183_r7725_r7676_p2613/
mc15_13TeV.361367.Sherpa_CT10_Wtaunu_Pt1000_2000_CFilterBVeto.merge.DAOD_EXOT5.e4133_s2608_s2183_r7725_r7676_p2613/
mc15_13TeV.361368.Sherpa_CT10_Wtaunu_Pt1000_2000_BFilter.merge.DAOD_EXOT5.e4133_s2608_s2183_r7725_r7676_p2613/
mc15_13TeV.361369.Sherpa_CT10_Wtaunu_Pt2000_E_CMS_CVetoBVeto.merge.DAOD_EXOT5.e4133_s2608_s2183_r7725_r7676_p2613/
mc15_13TeV.361370.Sherpa_CT10_Wtaunu_Pt2000_E_CMS_CFilterBVeto.merge.DAOD_EXOT5.e4133_s2608_s2183_r7725_r7676_p2613/
mc15_13TeV.361371.Sherpa_CT10_Wtaunu_Pt2000_E_CMS_BFilter.merge.DAOD_EXOT5.e4133_s2608_s2183_r7725_r7676_p2613/
# mc15_13TeV.361372.Sherpa_CT10_Zee_Pt0_70_CVetoBVeto missing! No version with tag p2613 found
# mc15_13TeV.361373.Sherpa_CT10_Zee_Pt0_70_CFilterBVeto missing! No version with tag p2613 found
# mc15_13TeV.361374.Sherpa_CT10_Zee_Pt0_70_BFilter missing! No version with tag p2613 found
# mc15_13TeV.361375.Sherpa_CT10_Zee_Pt70_140_CVetoBVeto missing! No version with tag p2613 found
# mc15_13TeV.361376.Sherpa_CT10_Zee_Pt70_140_CFilterBVeto missing! No version with tag p2613 found
# mc15_13TeV.361377.Sherpa_CT10_Zee_Pt70_140_BFilter missing! No version with tag p2613 found
# mc15_13TeV.361378.Sherpa_CT10_Zee_Pt140_280_CVetoBVeto missing! No version with tag p2613 found
# mc15_13TeV.361379.Sherpa_CT10_Zee_Pt140_280_CFilterBVeto missing! No version with tag p2613 found
# mc15_13TeV.361380.Sherpa_CT10_Zee_Pt140_280_BFilter missing! No version with tag p2613 found
mc15_13TeV.361381.Sherpa_CT10_Zee_Pt280_500_CVetoBVeto.merge.DAOD_EXOT5.e4133_s2608_s2183_r7772_r7676_p2613/
mc15_13TeV.361382.Sherpa_CT10_Zee_Pt280_500_CFilterBVeto.merge.DAOD_EXOT5.e4133_s2608_s2183_r7772_r7676_p2613/
mc15_13TeV.361383.Sherpa_CT10_Zee_Pt280_500_BFilter.merge.DAOD_EXOT5.e4133_s2608_s2183_r7772_r7676_p2613/
mc15_13TeV.361384.Sherpa_CT10_Zee_Pt500_700_CVetoBVeto.merge.DAOD_EXOT5.e4133_s2608_s2183_r7772_r7676_p2613/
mc15_13TeV.361385.Sherpa_CT10_Zee_Pt500_700_CFilterBVeto.merge.DAOD_EXOT5.e4133_s2608_s2183_r7772_r7676_p2613/
mc15_13TeV.361386.Sherpa_CT10_Zee_Pt500_700_BFilter.merge.DAOD_EXOT5.e4133_s2608_s2183_r7772_r7676_p2613/
mc15_13TeV.361387.Sherpa_CT10_Zee_Pt700_1000_CVetoBVeto.merge.DAOD_EXOT5.e4133_s2608_s2183_r7772_r7676_p2613/
mc15_13TeV.361388.Sherpa_CT10_Zee_Pt700_1000_CFilterBVeto.merge.DAOD_EXOT5.e4133_s2608_s2183_r7772_r7676_p2613/
mc15_13TeV.361389.Sherpa_CT10_Zee_Pt700_1000_BFilter.merge.DAOD_EXOT5.e4133_s2608_s2183_r7772_r7676_p2613/
mc15_13TeV.361390.Sherpa_CT10_Zee_Pt1000_2000_CVetoBVeto.merge.DAOD_EXOT5.e4133_s2608_s2183_r7772_r7676_p2613/
mc15_13TeV.361391.Sherpa_CT10_Zee_Pt1000_2000_CFilterBVeto.merge.DAOD_EXOT5.e4133_s2608_s2183_r7772_r7676_p2613/
mc15_13TeV.361392.Sherpa_CT10_Zee_Pt1000_2000_BFilter.merge.DAOD_EXOT5.e4133_s2608_s2183_r7772_r7676_p2613/
mc15_13TeV.361393.Sherpa_CT10_Zee_Pt2000_E_CMS_CVetoBVeto.merge.DAOD_EXOT5.e4133_s2608_s2183_r7772_r7676_p2613/
mc15_13TeV.361394.Sherpa_CT10_Zee_Pt2000_E_CMS_CFilterBVeto.merge.DAOD_EXOT5.e4133_s2608_s2183_r7772_r7676_p2613/
mc15_13TeV.361395.Sherpa_CT10_Zee_Pt2000_E_CMS_BFilter.merge.DAOD_EXOT5.e4133_s2608_s2183_r7772_r7676_p2613/
# mc15_13TeV.361396.Sherpa_CT10_Zmumu_Pt0_70_CVetoBVeto missing! No version with tag p2613 found
# mc15_13TeV.361397.Sherpa_CT10_Zmumu_Pt0_70_CFilterBVeto missing! No version with tag p2613 found
# mc15_13TeV.361398.Sherpa_CT10_Zmumu_Pt0_70_BFilter missing! No version with tag p2613 found
# mc15_13TeV.361399.Sherpa_CT10_Zmumu_Pt70_140_CVetoBVeto missing! No version with tag p2613 found
# mc15_13TeV.361400.Sherpa_CT10_Zmumu_Pt70_140_CFilterBVeto missing! No version with tag p2613 found
# mc15_13TeV.361401.Sherpa_CT10_Zmumu_Pt70_140_BFilter missing! No version with tag p2613 found
# mc15_13TeV.361402.Sherpa_CT10_Zmumu_Pt140_280_CVetoBVeto missing! No version with tag p2613 found
# mc15_13TeV.361403.Sherpa_CT10_Zmumu_Pt140_280_CFilterBVeto missing! No version with tag p2613 found
# mc15_13TeV.361404.Sherpa_CT10_Zmumu_Pt140_280_BFilter missing! No version with tag p2613 found
mc15_13TeV.361405.Sherpa_CT10_Zmumu_Pt280_500_CVetoBVeto.merge.DAOD_EXOT5.e4133_s2608_s2183_r7772_r7676_p2613/
mc15_13TeV.361406.Sherpa_CT10_Zmumu_Pt280_500_CFilterBVeto.merge.DAOD_EXOT5.e4133_s2608_s2183_r7772_r7676_p2613/
mc15_13TeV.361407.Sherpa_CT10_Zmumu_Pt280_500_BFilter.merge.DAOD_EXOT5.e4133_s2608_s2183_r7772_r7676_p2613/
mc15_13TeV.361408.Sherpa_CT10_Zmumu_Pt500_700_CVetoBVeto.merge.DAOD_EXOT5.e4133_s2608_s2183_r7772_r7676_p2613/
mc15_13TeV.361409.Sherpa_CT10_Zmumu_Pt500_700_CFilterBVeto.merge.DAOD_EXOT5.e4133_s2608_s2183_r7772_r7676_p2613/
mc15_13TeV.361410.Sherpa_CT10_Zmumu_Pt500_700_BFilter.merge.DAOD_EXOT5.e4133_s2608_s2183_r7772_r7676_p2613/
mc15_13TeV.361411.Sherpa_CT10_Zmumu_Pt700_1000_CVetoBVeto.merge.DAOD_EXOT5.e4133_s2608_s2183_r7772_r7676_p2613/
mc15_13TeV.361412.Sherpa_CT10_Zmumu_Pt700_1000_CFilterBVeto.merge.DAOD_EXOT5.e4133_s2608_s2183_r7772_r7676_p2613/
mc15_13TeV.361413.Sherpa_CT10_Zmumu_Pt700_1000_BFilter.merge.DAOD_EXOT5.e4133_s2608_s2183_r7772_r7676_p2613/
mc15_13TeV.361414.Sherpa_CT10_Zmumu_Pt1000_2000_CVetoBVeto.merge.DAOD_EXOT5.e4133_s2608_s2183_r7772_r7676_p2613/
mc15_13TeV.361415.Sherpa_CT10_Zmumu_Pt1000_2000_CFilterBVeto.merge.DAOD_EXOT5.e4133_s2608_s2183_r7772_r7676_p2613/
mc15_13TeV.361416.Sherpa_CT10_Zmumu_Pt1000_2000_BFilter.merge.DAOD_EXOT5.e4133_s2608_s2183_r7772_r7676_p2613/
mc15_13TeV.361417.Sherpa_CT10_Zmumu_Pt2000_E_CMS_CVetoBVeto.merge.DAOD_EXOT5.e4133_s2608_s2183_r7772_r7676_p2613/
mc15_13TeV.361418.Sherpa_CT10_Zmumu_Pt2000_E_CMS_CFilterBVeto.merge.DAOD_EXOT5.e4133_s2608_s2183_r7772_r7676_p2613/
mc15_13TeV.361419.Sherpa_CT10_Zmumu_Pt2000_E_CMS_BFilter.merge.DAOD_EXOT5.e4133_s2608_s2183_r7772_r7676_p2613/
# mc15_13TeV.361420.Sherpa_CT10_Ztautau_Pt0_70_CVetoBVeto missing! No version with tag p2613 found
mc15_13TeV.361421.Sherpa_CT10_Ztautau_Pt0_70_CFilterBVeto.merge.DAOD_EXOT5.e3733_s2608_s2183_r7772_r7676_p2613/
mc15_13TeV.361422.Sherpa_CT10_Ztautau_Pt0_70_BFilter.merge.DAOD_EXOT5.e3733_s2608_s2183_r7772_r7676_p2613/
mc15_13TeV.361423.Sherpa_CT10_Ztautau_Pt70_140_CVetoBVeto.merge.DAOD_EXOT5.e3733_s2608_s2183_r7772_r7676_p2613/
mc15_13TeV.361424.Sherpa_CT10_Ztautau_Pt70_140_CFilterBVeto.merge.DAOD_EXOT5.e3733_s2608_s2183_r7772_r7676_p2613/
mc15_13TeV.361425.Sherpa_CT10_Ztautau_Pt70_140_BFilter.merge.DAOD_EXOT5.e3733_s2608_s2183_r7772_r7676_p2613/
mc15_13TeV.361426.Sherpa_CT10_Ztautau_Pt140_280_CVetoBVeto.merge.DAOD_EXOT5.e3733_s2608_s2183_r7772_r7676_p2613/
mc15_13TeV.361427.Sherpa_CT10_Ztautau_Pt140_280_CFilterBVeto.merge.DAOD_EXOT5.e3733_s2608_s2183_r7772_r7676_p2613/
mc15_13TeV.361428.Sherpa_CT10_Ztautau_Pt140_280_BFilter.merge.DAOD_EXOT5.e3733_s2608_s2183_r7772_r7676_p2613/
mc15_13TeV.361429.Sherpa_CT10_Ztautau_Pt280_500_CVetoBVeto.merge.DAOD_EXOT5.e4133_s2608_s2183_r7772_r7676_p2613/
mc15_13TeV.361430.Sherpa_CT10_Ztautau_Pt280_500_CFilterBVeto.merge.DAOD_EXOT5.e4133_s2608_s2183_r7772_r7676_p2613/
mc15_13TeV.361431.Sherpa_CT10_Ztautau_Pt280_500_BFilter.merge.DAOD_EXOT5.e4133_s2608_s2183_r7772_r7676_p2613/
mc15_13TeV.361432.Sherpa_CT10_Ztautau_Pt500_700_CVetoBVeto.merge.DAOD_EXOT5.e4133_s2608_s2183_r7772_r7676_p2613/
mc15_13TeV.361433.Sherpa_CT10_Ztautau_Pt500_700_CFilterBVeto.merge.DAOD_EXOT5.e4133_s2608_s2183_r7772_r7676_p2613/
mc15_13TeV.361434.Sherpa_CT10_Ztautau_Pt500_700_BFilter.merge.DAOD_EXOT5.e4133_s2608_s2183_r7772_r7676_p2613/
mc15_13TeV.361435.Sherpa_CT10_Ztautau_Pt700_1000_CVetoBVeto.merge.DAOD_EXOT5.e4133_s2608_s2183_r7772_r7676_p2613/
mc15_13TeV.361436.Sherpa_CT10_Ztautau_Pt700_1000_CFilterBVeto.merge.DAOD_EXOT5.e4133_s2608_s2183_r7772_r7676_p2613/
mc15_13TeV.361437.Sherpa_CT10_Ztautau_Pt700_1000_BFilter.merge.DAOD_EXOT5.e4133_s2608_s2183_r7772_r7676_p2613/
mc15_13TeV.361438.Sherpa_CT10_Ztautau_Pt1000_2000_CVetoBVeto.merge.DAOD_EXOT5.e4133_s2608_s2183_r7772_r7676_p2613/
mc15_13TeV.361439.Sherpa_CT10_Ztautau_Pt1000_2000_CFilterBVeto.merge.DAOD_EXOT5.e4133_s2608_s2183_r7772_r7676_p2613/
mc15_13TeV.361440.Sherpa_CT10_Ztautau_Pt1000_2000_BFilter.merge.DAOD_EXOT5.e4133_s2608_s2183_r7772_r7676_p2613/
mc15_13TeV.361441.Sherpa_CT10_Ztautau_Pt2000_E_CMS_CVetoBVeto.merge.DAOD_EXOT5.e4133_s2608_s2183_r7772_r7676_p2613/
mc15_13TeV.361442.Sherpa_CT10_Ztautau_Pt2000_E_CMS_CFilterBVeto.merge.DAOD_EXOT5.e4133_s2608_s2183_r7772_r7676_p2613/
mc15_13TeV.361443.Sherpa_CT10_Ztautau_Pt2000_E_CMS_BFilter.merge.DAOD_EXOT5.e4133_s2608_s2183_r7772_r7676_p2613/
mc15_13TeV.361444.Sherpa_CT10_Znunu_Pt0_70_CVetoBVeto.merge.DAOD_EXOT5.e3651_s2608_s2183_r7772_r7676_p2613/
# mc15_13TeV.361445.Sherpa_CT10_Znunu_Pt0_70_CFilterBVeto missing! No version with tag p2613 found
# mc15_13TeV.361446.Sherpa_CT10_Znunu_Pt0_70_BFilter missing! No version with tag p2613 found
# mc15_13TeV.361447.Sherpa_CT10_Znunu_Pt70_140_CVetoBVeto missing! No version with tag p2613 found
# mc15_13TeV.361448.Sherpa_CT10_Znunu_Pt70_140_CFilterBVeto missing! No version with tag p2613 found
# mc15_13TeV.361449.Sherpa_CT10_Znunu_Pt70_140_BFilter missing! No version with tag p2613 found
# mc15_13TeV.361450.Sherpa_CT10_Znunu_Pt140_280_CVetoBVeto missing! No version with tag p2613 found
# mc15_13TeV.361451.Sherpa_CT10_Znunu_Pt140_280_CFilterBVeto missing! No version with tag p2613 found
# mc15_13TeV.361452.Sherpa_CT10_Znunu_Pt140_280_BFilter missing! No version with tag p2613 found
mc15_13TeV.361453.Sherpa_CT10_Znunu_Pt280_500_CVetoBVeto.merge.DAOD_EXOT5.e4133_s2608_s2183_r7772_r7676_p2613/
mc15_13TeV.361454.Sherpa_CT10_Znunu_Pt280_500_CFilterBVeto.merge.DAOD_EXOT5.e4133_s2608_s2183_r7772_r7676_p2613/
mc15_13TeV.361455.Sherpa_CT10_Znunu_Pt280_500_BFilter.merge.DAOD_EXOT5.e4133_s2608_s2183_r7772_r7676_p2613/
mc15_13TeV.361456.Sherpa_CT10_Znunu_Pt500_700_CVetoBVeto.merge.DAOD_EXOT5.e4133_s2608_s2183_r7772_r7676_p2613/
mc15_13TeV.361457.Sherpa_CT10_Znunu_Pt500_700_CFilterBVeto.merge.DAOD_EXOT5.e4133_s2608_s2183_r7772_r7676_p2613/
mc15_13TeV.361458.Sherpa_CT10_Znunu_Pt500_700_BFilter.merge.DAOD_EXOT5.e4133_s2608_s2183_r7772_r7676_p2613/
mc15_13TeV.361459.Sherpa_CT10_Znunu_Pt700_1000_CVetoBVeto.merge.DAOD_EXOT5.e4133_s2608_s2183_r7772_r7676_p2613/
mc15_13TeV.361460.Sherpa_CT10_Znunu_Pt700_1000_CFilterBVeto.merge.DAOD_EXOT5.e4133_s2608_s2183_r7772_r7676_p2613/
mc15_13TeV.361461.Sherpa_CT10_Znunu_Pt700_1000_BFilter.merge.DAOD_EXOT5.e4133_s2608_s2183_r7772_r7676_p2613/
mc15_13TeV.361462.Sherpa_CT10_Znunu_Pt1000_2000_CVetoBVeto.merge.DAOD_EXOT5.e4133_s2608_s2183_r7772_r7676_p2613/
mc15_13TeV.361463.Sherpa_CT10_Znunu_Pt1000_2000_CFilterBVeto.merge.DAOD_EXOT5.e4133_s2608_s2183_r7772_r7676_p2613/
mc15_13TeV.361464.Sherpa_CT10_Znunu_Pt1000_2000_BFilter.merge.DAOD_EXOT5.e4133_s2608_s2183_r7772_r7676_p2613/
mc15_13TeV.361465.Sherpa_CT10_Znunu_Pt2000_E_CMS_CVetoBVeto.merge.DAOD_EXOT5.e4133_s2608_s2183_r7772_r7676_p2613/
mc15_13TeV.361466.Sherpa_CT10_Znunu_Pt2000_E_CMS_CFilterBVeto.merge.DAOD_EXOT5.e3741_s2608_s2183_r7772_r7676_p2613/
mc15_13TeV.361467.Sherpa_CT10_Znunu_Pt2000_E_CMS_BFilter.merge.DAOD_EXOT5.e4133_s2608_s2183_r7772_r7676_p2613/
# mc15_13TeV.410000.PowhegPythiaEvtGen_P2012_ttbar_hdamp172p5_nonallhad missing! No version with tag p2613 found
# mc15_13TeV.410011.PowhegPythiaEvtGen_P2012_singletop_tchan_lept_top missing! No version with tag p2613 found
# mc15_13TeV.410012.PowhegPythiaEvtGen_P2012_singletop_tchan_lept_antitop missing! No version with tag p2613 found
# mc15_13TeV.410013.PowhegPythiaEvtGen_P2012_Wt_inclusive_top missing! No version with tag p2613 found
# mc15_13TeV.410014.PowhegPythiaEvtGen_P2012_Wt_inclusive_antitop missing! No version with tag p2613 found
mc15_13TeV.361039.Sherpa_CT10_SinglePhotonPt35_70_CVetoBVeto.merge.DAOD_EXOT5.e3587_s2608_s2183_r7773_r7676_p2613/
mc15_13TeV.361040.Sherpa_CT10_SinglePhotonPt35_70_CFilterBVeto.merge.DAOD_EXOT5.e3587_s2608_s2183_r7773_r7676_p2613/
mc15_13TeV.361041.Sherpa_CT10_SinglePhotonPt35_70_BFilter.merge.DAOD_EXOT5.e3587_s2608_s2183_r7773_r7676_p2613/
mc15_13TeV.361042.Sherpa_CT10_SinglePhotonPt70_140_CVetoBVeto.merge.DAOD_EXOT5.e3587_s2608_s2183_r7773_r7676_p2613/
mc15_13TeV.361043.Sherpa_CT10_SinglePhotonPt70_140_CFilterBVeto.merge.DAOD_EXOT5.e3587_s2608_s2183_r7773_r7676_p2613/
mc15_13TeV.361044.Sherpa_CT10_SinglePhotonPt70_140_BFilter.merge.DAOD_EXOT5.e3587_s2608_s2183_r7773_r7676_p2613/
mc15_13TeV.361045.Sherpa_CT10_SinglePhotonPt140_280_CVetoBVeto.merge.DAOD_EXOT5.e3587_s2608_s2183_r7773_r7676_p2613/
mc15_13TeV.361046.Sherpa_CT10_SinglePhotonPt140_280_CFilterBVeto.merge.DAOD_EXOT5.e3587_s2608_s2183_r7773_r7676_p2613/
mc15_13TeV.361047.Sherpa_CT10_SinglePhotonPt140_280_BFilter.merge.DAOD_EXOT5.e3587_s2608_s2183_r7773_r7676_p2613/
mc15_13TeV.361048.Sherpa_CT10_SinglePhotonPt280_500_CVetoBVeto.merge.DAOD_EXOT5.e3587_s2608_s2183_r7773_r7676_p2613/
mc15_13TeV.361049.Sherpa_CT10_SinglePhotonPt280_500_CFilterBVeto.merge.DAOD_EXOT5.e3587_s2608_s2183_r7773_r7676_p2613/
mc15_13TeV.361050.Sherpa_CT10_SinglePhotonPt280_500_BFilter.merge.DAOD_EXOT5.e3587_s2608_s2183_r7773_r7676_p2613/
mc15_13TeV.361051.Sherpa_CT10_SinglePhotonPt500_1000_CVetoBVeto.merge.DAOD_EXOT5.e3587_s2608_s2183_r7773_r7676_p2613/
mc15_13TeV.361052.Sherpa_CT10_SinglePhotonPt500_1000_CFilterBVeto.merge.DAOD_EXOT5.e3587_s2608_s2183_r7773_r7676_p2613/
mc15_13TeV.361053.Sherpa_CT10_SinglePhotonPt500_1000_BFilter.merge.DAOD_EXOT5.e3587_s2608_s2183_r7773_r7676_p2613/
mc15_13TeV.361054.Sherpa_CT10_SinglePhotonPt1000_2000_CVetoBVeto.merge.DAOD_EXOT5.e3587_s2608_s2183_r7725_r7676_p2613/
mc15_13TeV.361055.Sherpa_CT10_SinglePhotonPt1000_2000_CFilterBVeto.merge.DAOD_EXOT5.e3587_s2608_s2183_r7773_r7676_p2613/
mc15_13TeV.361056.Sherpa_CT10_SinglePhotonPt1000_2000_BFilter.merge.DAOD_EXOT5.e3587_s2608_s2183_r7773_r7676_p2613/
mc15_13TeV.361057.Sherpa_CT10_SinglePhotonPt2000_4000_CVetoBVeto.merge.DAOD_EXOT5.e3587_s2608_s2183_r7725_r7676_p2613/
mc15_13TeV.361058.Sherpa_CT10_SinglePhotonPt2000_4000_CFilterBVeto.merge.DAOD_EXOT5.e3587_s2608_s2183_r7773_r7676_p2613/
mc15_13TeV.361059.Sherpa_CT10_SinglePhotonPt2000_4000_BFilter.merge.DAOD_EXOT5.e3587_s2608_s2183_r7725_r7676_p2613/
mc15_13TeV.361060.Sherpa_CT10_SinglePhotonPt4000_CVetoBVeto.merge.DAOD_EXOT5.e3587_s2608_s2183_r7725_r7676_p2613/
mc15_13TeV.361061.Sherpa_CT10_SinglePhotonPt4000_CFilterBVeto.merge.DAOD_EXOT5.e3587_s2608_s2183_r7725_r7676_p2613/
mc15_13TeV.361062.Sherpa_CT10_SinglePhotonPt4000_BFilter.merge.DAOD_EXOT5.e3587_s2608_s2183_r7725_r7676_p2613/
# mc15_13TeV.361020.Pythia8EvtGen_A14NNPDF23LO_jetjet_JZ0W missing! No version with tag p2613 found
# mc15_13TeV.361021.Pythia8EvtGen_A14NNPDF23LO_jetjet_JZ1W missing! No version with tag p2613 found
# mc15_13TeV.361022.Pythia8EvtGen_A14NNPDF23LO_jetjet_JZ2W missing! No version with tag p2613 found
# mc15_13TeV.361023.Pythia8EvtGen_A14NNPDF23LO_jetjet_JZ3W missing! No version with tag p2613 found
# mc15_13TeV.361024.Pythia8EvtGen_A14NNPDF23LO_jetjet_JZ4W missing! No version with tag p2613 found
# mc15_13TeV.361025.Pythia8EvtGen_A14NNPDF23LO_jetjet_JZ5W missing! No version with tag p2613 found
# mc15_13TeV.361026.Pythia8EvtGen_A14NNPDF23LO_jetjet_JZ6W missing! No version with tag p2613 found
# mc15_13TeV.361027.Pythia8EvtGen_A14NNPDF23LO_jetjet_JZ7W missing! No version with tag p2613 found
# mc15_13TeV.361028.Pythia8EvtGen_A14NNPDF23LO_jetjet_JZ8W missing! No version with tag p2613 found
# mc15_13TeV.361029.Pythia8EvtGen_A14NNPDF23LO_jetjet_JZ9W missing! No version with tag p2613 found
# mc15_13TeV.361030.Pythia8EvtGen_A14NNPDF23LO_jetjet_JZ10W missing! No version with tag p2613 found
# mc15_13TeV.361031.Pythia8EvtGen_A14NNPDF23LO_jetjet_JZ11W missing! No version with tag p2613 found
# mc15_13TeV.361032.Pythia8EvtGen_A14NNPDF23LO_jetjet_JZ12W missing! No version with tag p2613 found